$ServiceID=
$Version=
.RELEASE_2.6.7=
CHANGELOG.txt=7F00B6ED0CEE8A92BB2FFBA03A6630B5
LICENSE.txt=F30094BD54FADD15FDD2D0562D24EE2C
OpenGTS_Config.pdf=B3F195AA3F09D9917D1D8FD6B4F9EAD4
README.txt=244037FA7246F22A2EB9D0A1AFEFF232
ReleaseNotes.txt=2A23054EE4DC025DC9C2546BC17D169B
SCHEMA.txt=DBE6F9F61EF65F62CCF4A81BD1E8DFD5
bin/admin.bat=75BDAA1558491CDCB31B26CAB307C755
bin/admin.pl=3510BD0559C7671FB37C510D6313F3C3
bin/admin.sh=F9D5273EC0563937181D702D1724D3D2
bin/checkInstall.bat=4A104A51ED8723D9AB9FDFA5B61042CC
bin/checkInstall.sh=401FA0FC53E3708F290307E5E2B43F94
bin/common.bat=A8C26D908328425A2D3BD05976798BCD
bin/common.pl=FC360A29523EA51A02C6C4B1D055CD21
bin/common.sh=6A770FBE19D96B392451AB54E7EC0C28
bin/dbAdmin.pl=BC73C8B29EE16D335F145C3A230A4A14
bin/dbConfig.bat=50D0D7900DB0959FC0D77AEC4D78750B
bin/exeJava=AC051AA2AF233D3A39C42FADDDB1BC59
bin/exeJava.bat=C75F14AA86F851AA77DD9AD4179BE225
bin/getFile.sh=7936F1A9DFF3C5BAF9379C425A4F77C0
bin/gtsdb.sh=40AE55C95DE0AB29468D52F441BC05E4
bin/initdb.bat=84D04807C674C405C66D1E81DD81CBC4
bin/initdb.pl=4ABB95C2CCB9284B747DFD073D87CEEF
bin/initdb.sh=58E80B433B394C6F5E594F9CE2C75007
bin/makeGtsVarsEnv.sh=8D823BF653F8B740524D2C14949F5C1A
bin/mlpTest.bat=F992BF7CF86DAB3F8BEB51386411F522
bin/mlpTest.sh=7C507E8C9D1063265F9979A37078979C
bin/parseFile.sh=0E6DC03E07D3A90D3302AD92B1F81E8E
bin/postInstall.sh=790B6473ADBADD2D04D7CECA3C46400E
bin/psjava=E903EB5F9DD0D2005D163BEC3DE22B9B
bin/rgTest.bat=3FC3E7F523E501ED060AEE6715AA4B9C
bin/rgTest.sh=D11B8472CBD914AA5C2F534434FC13E4
bin/runserver.bat=728A06D3F1DE8D4BC8D6729C65A61CE5
bin/runserver.pl=C4626D034E8E9358DAE492D3B68BED7A
bin/runserver.sh=864D9A271C587CAEC0F9DE1D04BDC4F7
bin/serverList=3EF0C4731978F842C4F24AAFF15CAFB1
bin/startServers.sh=0903ADBCA15B1E7402A0705FA0F3BB1F
bin/trackstick.bat=A250C216BA0757D793854180F98422DB
bin/trackstick.sh=8C5AFDA20E87F17022B41A82EF14C60D
build.properties=053191187BD6F7234A89D0BB70494F90
build.xml=842422C7F3714F81BE44E6205860763F
build_custom.xml=5AA63D344195091ECE89DCDA0198FD2D
common.conf=C2990BB357577CF7C8463573D68EC8FF
config.conf=1BD2107B40DD2BFC6F7DBBECCC57C5B1
config.conf.original=1BD2107B40DD2BFC6F7DBBECCC57C5B1
custom.conf=B9D4328D0AF6A951E95D4100B7EB3246
dcservers.dtd=716DD74B18743BB85EADCD86FECEF755
dcservers.xml=4FFF33A16FDEF5E9D867FD9069F9ADA6
default.conf=44F7FCD8FB9FB39328CD41A8301ACEC1
private.dtd=440A3CF4D6A7365EC4282691E7E164F0
private.xml=7EEAC7FD2E37C78AA4F2A7C23E4193E4
private/private.dtd=440A3CF4D6A7365EC4282691E7E164F0
reports.dtd=FCDA8B45790656367342F9138E8B7195
reports.xml=7C7A8173F2A8291D99F675E193394870
src/org/opengts/StartupInit.java=98CE14ABA4FAB66410DB63108CD7D4E2
src/org/opengts/Version.java=2355A9CB201EC4B3EBB0BD4F215F038F
src/org/opengts/cellid/CellTower.java=7360D5593D0A56A758854822C1231F42
src/org/opengts/cellid/MobileLocation.java=341C9785212C45D97FF22D3235B3FE19
src/org/opengts/cellid/MobileLocationProvider.java=AF3ACA9B8942F3982DE2106540F72E25
src/org/opengts/cellid/MobileLocationProviderAdapter.java=4817D33A33E527F00D3286794E4779D7
src/org/opengts/cellid/google/GoogleMobileService.java=45828A2F28712992D3D5429B73B52804
src/org/opengts/cellid/opencellid/OpenCellID.java=F3C643732B1CD35AF60816313DAC69D3
src/org/opengts/cellid/unwiredlabs/UnwiredLabs.java=26BB3F2A4A41BBFF24BFDF4895184332
src/org/opengts/db/ADJobHandler.java=DA53A9D7076FD0118ED6C2166D56F36D
src/org/opengts/db/ADJobQueue.java=8EAD660CC6F9CD51958092F5C06E281C
src/org/opengts/db/AccountRecord.java=CC1191B41FCD7F9CBA32956C7993B224
src/org/opengts/db/AclEntry.java=F83B463B31E531ED4DF21F5690572CD9
src/org/opengts/db/Audit.java=A926918438FDF07D591FB5B1ACE7E236
src/org/opengts/db/BasicPrivateLabel.java=0CDA01BDC0D0F8E45BE116C450246B3D
src/org/opengts/db/BasicPrivateLabelLoader.java=A976F44A7BDC4DD4B3849DDDAFC349EE
src/org/opengts/db/BatteryLevelProfile.java=F50220B4D16BA6CCE0136320934B830E
src/org/opengts/db/CommandPacketHandler.java=11658C55B731F33A17E78DBCA7CA2430
src/org/opengts/db/CommandPingDispatcher.java=36DF37A257387E133395D60AD67041E4
src/org/opengts/db/CustomCommand.java=19CA31EBC8D29456EBADCB08608C0195
src/org/opengts/db/CustomParser.java=A6E38BF786A71ED252948F386F0DA9C6
src/org/opengts/db/CustomParserAdapter.java=F862EBE2C8F22785B8A84E895130AC5E
src/org/opengts/db/DBConfig.java=23BF22197EE6F9BC72E082B12F9C8431
src/org/opengts/db/DBLoginJAAS.java=65DB3A04E7AA2DD14B0E0492E66EC31C
src/org/opengts/db/DCSConsole.java=7AECF18EDCB61BDEB988CC022A266251
src/org/opengts/db/DCServerConfig.java=648A0AE8C56380FEF06B0FE38078BB12
src/org/opengts/db/DCServerFactory.java=65F1FCF992025A3A36FE0107AF8FE890
src/org/opengts/db/DataPushProvider.java=51413007A1387FB7D6936CB83E3BA85C
src/org/opengts/db/DataTransport.java=877C191F77CD44A00F286B0B779821B9
src/org/opengts/db/DeviceGroupProvider.java=A9273289C0AD94EFDA070748E917478C
src/org/opengts/db/DeviceProvider.java=47A62309D9CC904F972BCCEDB56325F2
src/org/opengts/db/DeviceRecord.java=F7F95899A2DA1B8F6AEB4E97344F83C6
src/org/opengts/db/ELogHOSProvider.java=F00A0F89373170101F534BDA9841E89D
src/org/opengts/db/EntityManager.java=1D19AAD16E590796BBBE6D415E4957A6
src/org/opengts/db/EventDataAnalog.java=EE35A0EA9E1FF28ED25A07E0EE82CFFE
src/org/opengts/db/EventDataAnalogMap.java=E49B8599DF8064322DBC793BDE0BDE8C
src/org/opengts/db/EventDataInsertionListener.java=BB7BB02DAEF95343D0E34761447E5BBB
src/org/opengts/db/EventDataProvider.java=AC4E02620FAD4EC55111795919E778C3
src/org/opengts/db/EventDataProviderAdapter.java=03D2F1FC81E4A0113E13EE9C5C5BCC24
src/org/opengts/db/EventSummaryType.java=EB6C7BAF72D7A93D668D53CDD9DF142B
src/org/opengts/db/EventUtil.java=BCB373524ABF1D1B400A6CA3A854D975
src/org/opengts/db/FuelLevelProfile.java=7E3A10F10A2215171357ED1EDB99A83D
src/org/opengts/db/FuelManager.java=0E5E2C48BC5FB2B360F4360476782E54
src/org/opengts/db/GeneralPasswordHandler.java=93F2B9CE90D756A63C458EA7FB7E868C
src/org/opengts/db/GeoEvent.java=69D1D5E28DBE3BDBC85D461C2D15EEC4
src/org/opengts/db/GoogleKML.java=1018B749791C2D59323504C8AC2884B7
src/org/opengts/db/GroupRecord.java=8FD3581C7808E117C3AE39BE62E999EA
src/org/opengts/db/HierarchyRecord.java=C839C6DE10289805377266EE7A8C1A88
src/org/opengts/db/JobAssignment.java=60348ECECE1912729B790F7AF112A328
src/org/opengts/db/LdapAuth.java=08A9925E2DED4164967B33D2D982A041
src/org/opengts/db/LocalStrings_de.properties=0C1017E1D020AD7FC4526A81CC8A7866
src/org/opengts/db/LocalStrings_el.properties=BC4AEB2C63E4414F81DBDDFEE4393EDC
src/org/opengts/db/LocalStrings_en.properties=BCB0CDC4250EA1D70BC55B4DE10CA055
src/org/opengts/db/LocalStrings_es.properties=64B5307F7530F533875C15FE22C77C9E
src/org/opengts/db/LocalStrings_fr.properties=ABA39451926AA4DBE35B534216A5F0D1
src/org/opengts/db/LocalStrings_hu.properties=FB4B603199B80985957CBE3A18B537A1
src/org/opengts/db/LocalStrings_it.properties=0166E358778F8BA6B8C5679E034C6DA7
src/org/opengts/db/LocalStrings_nl.properties=9CD0122AE0DADEB28131970CC24A8353
src/org/opengts/db/LocalStrings_pl.properties=BDF6577F762D8EE3F4CEC252F74F79BE
src/org/opengts/db/LocalStrings_pt.properties=0FC41784A2EB159CF8FD7F3DC5E9CA52
src/org/opengts/db/LocalStrings_ro.properties=39607D391A746B7220A331F72B2EBA75
src/org/opengts/db/LocalStrings_ru.properties=CD3E1E057DB0C0CCF6BE57EEA0F1A80F
src/org/opengts/db/LocalStrings_sk.properties=857DC58253055F396F1F536DC450F7EA
src/org/opengts/db/LocalStrings_sr.properties=52E55FBFA0FA9D8455E2F427A00B59F9
src/org/opengts/db/LocalStrings_tr.properties=67CB61A54F85F5DE7540036AA9F7279F
src/org/opengts/db/Maintenance.java=B05131443CC30846D0A4C39CE2DA0590
src/org/opengts/db/OptionalEventFields.java=EA08802861C55BE4D83EF35B4F7464DA
src/org/opengts/db/ParseEvent.java=443FFF54D7C3764926C8BBCCB75BD460
src/org/opengts/db/ParseEventsXML.java=6DE1E9F9D8125403A40915295C8B6B21
src/org/opengts/db/PasswordHandler.java=0DA5174EEC97ED0902A608F13B600943
src/org/opengts/db/PingDispatcher.java=812073B97FCDDA5CD152032C73A7B451
src/org/opengts/db/PoiProvider.java=E044AF1584EE5FA86B08BA12BECE2FE7
src/org/opengts/db/PredefinedRuleAction.java=AD3E5FAFBF3A3169AA8A116022D5FDBE
src/org/opengts/db/PushpinIcon.java=EA82B873663B6DD95A30DC1790CE7EC1
src/org/opengts/db/PushpinIconIndexProvider.java=B9699FB649BCBCD83A8382FA8758747B
src/org/opengts/db/Recipients.java=F00A4E7325D60FE01B35C461B8D8BB81
src/org/opengts/db/ReportURL.java=00FCE02F48A7300703895896FD50F4EB
src/org/opengts/db/RoleRecord.java=BF543933E7D793E1C1EDA9F7A02D2C78
src/org/opengts/db/RuleFactory.java=499E3E1054A03BFD29EEBC80A41DD3D1
src/org/opengts/db/RuleFactoryAdapter.java=8C7E314C6ED6E1419C469A8A1AE1937A
src/org/opengts/db/RuleFactoryExample.java=AAF7B75DA41D34D59F1B0323A91C55C9
src/org/opengts/db/RuleParseException.java=9FB51AABD2D7944D16F25354C29ABEBC
src/org/opengts/db/SMSOutboundGateway.java=40B08313E5D04F145C30997730CFFC61
src/org/opengts/db/SMSProperties.java=7D8B5ED027E129E3F5222799E0B9CCD4
src/org/opengts/db/SessionStatsFactory.java=E12EC8C641ECB243FB5EF65DAD593CFA
src/org/opengts/db/StatusCodeProvider.java=EBF423F17FF6914C4AED2F7035F4ABD8
src/org/opengts/db/StatusCodes.java=FCB6C41E3DDF3F961EC9D03CA9612A98
src/org/opengts/db/TrackStick.java=18235F78C18A38EB37FEF2F160DDB298
src/org/opengts/db/UserInformation.java=A4293E341AAD8AFCCB8A6CE2B1C2EE97
src/org/opengts/db/UserPrincipal.java=D902EB63B1CB65BCFE2AFF57FDF92918
src/org/opengts/db/UserRecord.java=B5E17CF2BE0D0E974AF4A2912EF7C2C3
src/org/opengts/db/WorkHours.java=67E39955E990AA6A6B4C16DB8DF1ED03
src/org/opengts/db/dmtp/ClientDiagnostics.java=C26B9C6E2434D49C2B18F9A14C088BA1
src/org/opengts/db/dmtp/ClientErrors.java=650FBDF545A8DF66875F7426E9C642F9
src/org/opengts/db/dmtp/Diagnostic.java=DDE875914A3B1E1D8187FBEC408176D0
src/org/opengts/db/dmtp/EventTemplate.java=CCE4B802A987632E15CD6C6459198F85
src/org/opengts/db/dmtp/LocalStrings_de.properties=B75F53E121F70073CB13A1370963F8A4
src/org/opengts/db/dmtp/LocalStrings_el.properties=77138D3124ABFC4DF998A124B5F23B51
src/org/opengts/db/dmtp/LocalStrings_en.properties=36E9A409F936A881910C95A0F11F5140
src/org/opengts/db/dmtp/LocalStrings_es.properties=03010D65EC45631164D726E621AD351B
src/org/opengts/db/dmtp/LocalStrings_fr.properties=3524E6CA024D65261094387AD1CA4FF2
src/org/opengts/db/dmtp/LocalStrings_hu.properties=026BEDCA58870A0A53BE701DA54F8E25
src/org/opengts/db/dmtp/LocalStrings_it.properties=1507993F1AA2839C08DC3E02EBB6AB25
src/org/opengts/db/dmtp/LocalStrings_nl.properties=C7FF2E19E8B337E2F3375F696EA8ABD6
src/org/opengts/db/dmtp/LocalStrings_pl.properties=5E03CF83B2D137022186B44AF7731581
src/org/opengts/db/dmtp/LocalStrings_pt.properties=3B064A5204F47D6629F68865CEE2B3DC
src/org/opengts/db/dmtp/LocalStrings_ro.properties=7E8FD20FBE5A32F07D88C1744498C519
src/org/opengts/db/dmtp/LocalStrings_ru.properties=59693BB52C3E66023B848782730EEF7B
src/org/opengts/db/dmtp/LocalStrings_sk.properties=1A1CDD305868A8557ADDCC3C9C1E9855
src/org/opengts/db/dmtp/LocalStrings_sr.properties=239AFD339D071863429D2705656019B1
src/org/opengts/db/dmtp/LocalStrings_tr.properties=8C84755BAA82D1719F66BC4401A2A5A6
src/org/opengts/db/dmtp/PendingPacket.java=C7BEFEFE4E2F81677288158D4E397B1D
src/org/opengts/db/dmtp/Property.java=F3A10D613C3AEF22AA71AE02AA96007D
src/org/opengts/db/dmtp/PropertyKey.java=845CA71E78962BD827D84F2155BA1B4B
src/org/opengts/db/dmtp/package-info.java=77DD7B1F2A4CD0D3CEB8B3E8B5DC7C2E
src/org/opengts/db/package-info.java=02865F4D538245CF13DE382C4BC948F9
src/org/opengts/db/tables/Account.java=B9097A5102994C4E06B381EF804A6B43
src/org/opengts/db/tables/AccountString.java=B38DBCB86C461B834C62BCC714FE0F14
src/org/opengts/db/tables/Device.java=F1F45E66A75DC04A7926FAC56658662B
src/org/opengts/db/tables/DeviceGroup.java=925FD90069DB360FB960B5D0405DB69C
src/org/opengts/db/tables/DeviceList.java=821C45675841CAA17FD0D2823AB8C870
src/org/opengts/db/tables/Driver.java=8C5B2EC67F748735B8C94E9725C3CA25
src/org/opengts/db/tables/EventData.java=7C276292DC3229EC7603633B7A455848
src/org/opengts/db/tables/EventDataExtra.java=849FCE72418D2050B28BB49D7EB15ACD
src/org/opengts/db/tables/Geozone.java=65CBD78F2A591F8F797836070C02E39A
src/org/opengts/db/tables/GroupList.java=02EA27CE96A8183289E6532D22A15308
src/org/opengts/db/tables/LocalStrings_de.properties=22D7DCCACA4CECA5DD96C187369EDFD0
src/org/opengts/db/tables/LocalStrings_el.properties=122EC6AAA24327E93F0782341F422FD1
src/org/opengts/db/tables/LocalStrings_en.properties=82C155CDCB2381FE1EDF2B55BA085771
src/org/opengts/db/tables/LocalStrings_es.properties=6009BB6CB7FC707BB783D62793490CA3
src/org/opengts/db/tables/LocalStrings_fr.properties=6A0D6B198570B7F5C762DD6E18397D0E
src/org/opengts/db/tables/LocalStrings_hu.properties=0B46CCCB0975E68A817AC8E236F3E6DB
src/org/opengts/db/tables/LocalStrings_it.properties=22495AFD67F773710517FED2B41630D0
src/org/opengts/db/tables/LocalStrings_nl.properties=EB5F52F4ADCF3419C503C209AD1CA5CD
src/org/opengts/db/tables/LocalStrings_pl.properties=1DC46D6782C0DAC78E55651235DE494C
src/org/opengts/db/tables/LocalStrings_pt.properties=D872C11099427A4B1AC2C1343D42F6A9
src/org/opengts/db/tables/LocalStrings_ro.properties=33EF170D620409BCA0CD0E0835994578
src/org/opengts/db/tables/LocalStrings_ru.properties=F0789354E4ABD84B7EE01D5DEF842C4D
src/org/opengts/db/tables/LocalStrings_sk.properties=A5FBD7245B980C348DF6662931043DC0
src/org/opengts/db/tables/LocalStrings_sr.properties=679B46F843D3E4A395B7F9A9A5E0F5C1
src/org/opengts/db/tables/LocalStrings_tr.properties=B0FA0C83AEC97384C327E6EEEBA85547
src/org/opengts/db/tables/Resource.java=F49482C23C2A7302B11BDEA3E085DE7E
src/org/opengts/db/tables/Role.java=6522E46611660F4ADF5DC599A2253F01
src/org/opengts/db/tables/RoleAcl.java=95F1E5D3E4491124F3F31E56751A8F14
src/org/opengts/db/tables/StatusCode.java=6592503CE532BD8606C6C24D4A447000
src/org/opengts/db/tables/SystemProps.java=D4A501E98AFF5E36748D654DE9621447
src/org/opengts/db/tables/Transport.java=6E831513B6AAB6C59B0FEAB5041DF3FA
src/org/opengts/db/tables/UniqueXID.java=6EB19EF347FC8BAAEF6329F7E65B0D3C
src/org/opengts/db/tables/User.java=A7D8A3DE52BA2773F2DA48E90142B2F4
src/org/opengts/db/tables/UserAcl.java=6FA1D1D6C6B1285EA29E3738080A4A0B
src/org/opengts/db/tables/UserDevice.java=16386188A2BCB9BC7361370722AB806E
src/org/opengts/db/tables/package-info.java=B5BFF73796A0310AAC85028CCDBD7E76
src/org/opengts/dbtools/DBAdmin.java=1CC809E0D72834177E46062FE3437630
src/org/opengts/dbtools/DBAlreadyExistsException.java=262F13BA9B8A628E6DCE0DEA0649A2AE
src/org/opengts/dbtools/DBAlternateIndex.java=3CB249892EDD63E72CA11BEBB3BB0222
src/org/opengts/dbtools/DBAudit.java=47DCFF3F9AF28E02FAAE1376308B8597
src/org/opengts/dbtools/DBConnection.java=923CB6ECE43A2EC98BB69A5FE3BCE8CD
src/org/opengts/dbtools/DBDelete.java=789E10B48455E791C03434CAADF01870
src/org/opengts/dbtools/DBDuplicateFoundException.java=309BBB785F1301DC9E141B9628B3F65F
src/org/opengts/dbtools/DBEdit.java=2E1E94D014C28D453C0452383A5153BE
src/org/opengts/dbtools/DBException.java=C91B27651B7CE213FE2E1DD0D4977EC8
src/org/opengts/dbtools/DBFactory.java=503D18B4B270EBC23E9324CE32795279
src/org/opengts/dbtools/DBFactoryTree.java=945812DEEA027CF5C89ADD30EA3CA497
src/org/opengts/dbtools/DBField.java=92B085FE6242599BFC97FC7AE1255D38
src/org/opengts/dbtools/DBFieldType.java=D633DEBD0366D6E2066C9A8CBE1104A1
src/org/opengts/dbtools/DBFieldValues.java=D7B8071FA5C0E23732D16E216BF5299B
src/org/opengts/dbtools/DBHacks.java=D434CF65592C7423F5C248CB5728B901
src/org/opengts/dbtools/DBLoadValidator.java=CD9EC853417E64B1F168EC73426C1DC8
src/org/opengts/dbtools/DBLoadValidatorAdapter.java=D742CB003006C6DCDD1E5983D4585BD6
src/org/opengts/dbtools/DBNotAuthorizedException.java=C64C96A895D7A9D17D57556B7B09AC25
src/org/opengts/dbtools/DBNotFoundException.java=8F23CF2660B197004FB07F5868D644EF
src/org/opengts/dbtools/DBProvider.java=B54E03B121C86322388D7472E448DBF3
src/org/opengts/dbtools/DBReadWriteMode.java=615698B66B38A5C6F1DE7BD7069AA2FF
src/org/opengts/dbtools/DBRecord.java=B823415631BA0E98295902461E4E0804
src/org/opengts/dbtools/DBRecordHandler.java=11C2383C5CCA6D7F0D7D77709E1FEB59
src/org/opengts/dbtools/DBRecordIterator.java=7FDAA8DBEE34C2C193CB17FF07DB799A
src/org/opengts/dbtools/DBRecordKey.java=DDDD19C07B061BEEA2405CBC22896CA5
src/org/opengts/dbtools/DBRecordListener.java=8DAE3B4498840B143B05E69FCD334409
src/org/opengts/dbtools/DBSelect.java=983000D16ADE95AA48163C4894FACAEF
src/org/opengts/dbtools/DBTableIndexMap.java=DAEC32A1D7DF59C3381719916E460B3E
src/org/opengts/dbtools/DBWhere.java=3346B682A08BD1BBC5811068B97A752C
src/org/opengts/dbtools/package-info.java=126591D9EACC7319E1CED3204696F5A2
src/org/opengts/dbtypes/DTELogState.java=3CC175AFA28D63FDBEAEBF2A803CAF52
src/org/opengts/dbtypes/DTIPAddrList.java=0E8DEC7F9F2C765FBA51DDABB100011A
src/org/opengts/dbtypes/DTIPAddress.java=30CE18C3136EDA4C395180A658E9E0DD
src/org/opengts/dbtypes/DTOBDFault.java=D446113F2255039889B2FB28722DD9A6
src/org/opengts/dbtypes/DTProfileMask.java=A0C8FB0149BB048A99C3D52E6195097B
src/org/opengts/dbtypes/DTTemplate.java=9DA4462684EDA13268164ADCBC968B50
src/org/opengts/dbtypes/DTUniqueID.java=43163B5724578291291BBFA9BF6045D4
src/org/opengts/dbtypes/package-info.java=1C721CA1323F521AE033B0361D0EAA34
src/org/opengts/geocoder/Geocode.java=6D43A54883B26DDD6108FCE1EB907340
src/org/opengts/geocoder/GeocodeProvider.java=0355EB448E467CCEFEC16B8D1BA1A814
src/org/opengts/geocoder/GeocodeProviderAdapter.java=AAED95DBC7D215F5EE22194C691A4945
src/org/opengts/geocoder/ReverseGeocode.java=7184A24576FDD94242BDBCD25CD08B50
src/org/opengts/geocoder/ReverseGeocodeCache.java=0ED217E979305757ECE2F21276ED0D33
src/org/opengts/geocoder/ReverseGeocodeCacheInterface.java=11C62D46B3D291568F7077271B68A217
src/org/opengts/geocoder/ReverseGeocodeProvider.java=EF750F4CDD9A26A209948C2682F2FCA5
src/org/opengts/geocoder/ReverseGeocodeProviderAdapter.java=28F3C806E55E36BE2E1ABF2A01D99FC5
src/org/opengts/geocoder/SlowOperationException.java=3B0287D23601554C7ABCE94B99A6F964
src/org/opengts/geocoder/SubdivisionException.java=CD9D520902C7EE3EA20ACFACABDE41B0
src/org/opengts/geocoder/SubdivisionProvider.java=E59784C04BE48A9B2E7F178DFBC44A0F
src/org/opengts/geocoder/country/Canada.java=03B1501FBCC8C9CFE797280DF14DA28E
src/org/opengts/geocoder/country/CountryCode.java=6FF5A972E5AD8795FE3B03883FAB3F71
src/org/opengts/geocoder/country/Mexico.java=B579A0574FA3323BCDC3AE354C13345D
src/org/opengts/geocoder/country/USState.java=7698AE0BADF2EEABD84D55CF11B89AF6
src/org/opengts/geocoder/geonames/GeoNames.java=611C848BD340146C63A01B439597BE0F
src/org/opengts/geocoder/geonames/package-info.java=7FB8B012D71165FA4A9E2769ED170B70
src/org/opengts/geocoder/gisgraphy/GisGraphy.java=D261331CBC2D1C156A7D8DCDDEE73C39
src/org/opengts/geocoder/gisgraphy/GisGraphy5.java=A879CD211AD8B992DF3B2FD7F4744232
src/org/opengts/geocoder/gisgraphy/package-info.java=D863230B227CB8EE57E138033BF49DFA
src/org/opengts/geocoder/gisgraphy4/GisGraphy.java=B1DE2A00DB51F4CD1264D18BAA380952
src/org/opengts/geocoder/google/GoogleGeocodeV2.java=2E88D3A82F774E188D4D85203D90EAB5
src/org/opengts/geocoder/google/GoogleGeocodeV3.java=B67A82372DA53C3716735CD96CA44C59
src/org/opengts/geocoder/google/GoogleSig.java=58B1AEE210DAC54E54697B1709C11973
src/org/opengts/geocoder/google/package-info.java=3611140E844F26DB632CDC7C5AC33934
src/org/opengts/geocoder/nominatim/Nominatim.java=A86C33A503C0E1CF7E5B04F68C08C44D
src/org/opengts/geocoder/nominatim/package-info.java=BD22D9CF2D393B5EE9C7377FAC08D08F
src/org/opengts/geocoder/opencage/OpenCageData.java=DA000C525F8D3BE7F2CB0D2FEF82A59B
src/org/opengts/geocoder/package-info.java=C12836D969FEAB95F1576C0822E85414
src/org/opengts/geocoder/tinygeocoder/TinyGeocoder.java=6A6CA63A5D021BDD67D19DC2B8B20BC8
src/org/opengts/geocoder/tinygeocoder/package-info.java=8FB6FD2606B419DA027E9A0D471BDEA3
src/org/opengts/google/GoogleChart.java=834634F86F25DD5A98817E5C8187D103
src/org/opengts/google/GoogleChartTemperature.java=29D33D9366253ADBED3779E5F3E14A6E
src/org/opengts/google/GoogleDataTable.java=B40539BF18DCEB7CFD185065B2C68E51
src/org/opengts/google/GoogleDirections.java=F863AED2A42D19D9C003A7A85BB57A75
src/org/opengts/google/GooglePolyline.java=77ECD4C7C57F99D7C612CCC96D15293B
src/org/opengts/google/GoogleRoads.java=A0B80AAAA2093E46C9C151E8B247ABD1
src/org/opengts/google/GoogleStaticMap.java=1EDAA406C22710FB2438FFB88985F537
src/org/opengts/routing/RouteProvider.java=001E443700A9C95A208A4D36E3192E87
src/org/opengts/routing/RouteProviderAdapter.java=5D17CAD3A1B2FE37DFDA5FD13D5488EF
src/org/opengts/routing/google/GoogleRouteProvider.java=3A735C88E5D0C8948D7A2EF0C2A71251
src/org/opengts/routing/google/package-info.java=4790F71042D79BFF5AB8D5ECDFCEF0FA
src/org/opengts/servers/GPSEvent.java=CF955E55897E3E3C2DC68A3FECB513E5
src/org/opengts/servers/aspicore/Constants.java=C454DA41EEDA7D80031C86A0DF1583C3
src/org/opengts/servers/aspicore/Main.java=325CA140DFFBE8789233E9705A8451BA
src/org/opengts/servers/aspicore/TrackClientPacketHandler.java=89781D8AEBC6E3BAB87F6868A36D9E65
src/org/opengts/servers/aspicore/TrackServer.java=7F29FA2EE277615174E47A60FC331357
src/org/opengts/servers/astra/Constants.java=DD3B44FB9ABBDB9F0FF4F4133BD21E7A
src/org/opengts/servers/astra/Main.java=86A0C96149D526B9EF3DB1F29882B18B
src/org/opengts/servers/astra/README.txt=6DA9168E0D5CED094B0EA2AF8C7122AA
src/org/opengts/servers/astra/TrackClientPacketHandler.java=E60B33DF3AE4EB3366CA2E9DE622B59B
src/org/opengts/servers/astra/TrackServer.java=B8179E64C8A7238EDE770967171BE57A
src/org/opengts/servers/gtsdmtp/AccountDBImpl.java=A05FAB21DE3F097E6BA571B293C7FF8B
src/org/opengts/servers/gtsdmtp/DMTPDBFactory.java=9B57C139FCB44ECD93D0321C43114B28
src/org/opengts/servers/gtsdmtp/DeviceDBImpl.java=A1A19F57A578FEBB79D9F71BE5E427DE
src/org/opengts/servers/gtsdmtp/Main.java=D51F7DAD5C763048FA35BB2A67D54BF1
src/org/opengts/servers/gtsdmtp/ParseFile.java=FF7107598C5D43844AB2A5BCF7FFE4B5
src/org/opengts/servers/gtsdmtp/package-info.java=A5CC43D4E0FDA94D14B65FAE2BF771C9
src/org/opengts/servers/icare/Constants.java=F2A08EC74EE5AB710538E465E99C08E3
src/org/opengts/servers/icare/Main.java=B3445C76F60AAAF8EC1F92AD2C0A2683
src/org/opengts/servers/icare/TrackClientPacketHandler.java=A1A4C4849EA58A57CA07AA8F28CAA5A5
src/org/opengts/servers/icare/TrackServer.java=5EBDBB85F7FFD9625908D97767E699E6
src/org/opengts/servers/icare/package-info.java=11426C1FA45D985C8AC354B4FC573B1C
src/org/opengts/servers/lantrix/Constants.java=C063A581C7C18E11AA9E453493922C95
src/org/opengts/servers/lantrix/Main.java=67EB19D4540953522803C24B47F69AD6
src/org/opengts/servers/lantrix/TrackClientPacketHandler.java=C8DE6052C844E023DFC054D53F96D9BC
src/org/opengts/servers/lantrix/TrackServer.java=3ED41515DAAE67251D360055DCC84F83
src/org/opengts/servers/sipgear/Constants.java=8ECA455798235E67CDBFB3601E2E518D
src/org/opengts/servers/sipgear/Main.java=A2AF9303C08E37D16112EB586A469B34
src/org/opengts/servers/sipgear/TrackClientPacketHandler.java=FC4B3C8537B4BA7C8C8A1F25FBACE81C
src/org/opengts/servers/sipgear/TrackServer.java=9B525A6BA56C91A53317F3202BB6E2E7
src/org/opengts/servers/taip/Constants.java=E1A925DC320F247755164B82A1E66F39
src/org/opengts/servers/taip/Main.java=1237D95FDEB167C49AB74650C7AA9AD3
src/org/opengts/servers/taip/TrackClientPacketHandler.java=A2641F41F3CB926C32D97F5B59D722C0
src/org/opengts/servers/taip/TrackServer.java=604E5BA360D6257AF0804571200FB321
src/org/opengts/servers/template/Constants.java=B54E0B49C822444CBF409C46FD98EE41
src/org/opengts/servers/template/Main.java=676E8CFAA34940E5D64680CDDC1FD890
src/org/opengts/servers/template/TrackClientPacketHandler.java=95745531353F168451F0D8D5D22BF03E
src/org/opengts/servers/template/TrackServer.java=8EED3DC9190E3792793B83CEEFDFACEE
src/org/opengts/servers/template/package-info.java=3C87D868775D293D37EC4E43303313CD
src/org/opengts/servers/tk10x/Constants.java=2AAE8316389BF07E862B526C65E62891
src/org/opengts/servers/tk10x/Main.java=D43C956C6488FC02D0A459AFC67994D3
src/org/opengts/servers/tk10x/TrackClientPacketHandler.java=E57C79B88AA73D99D1430AD9DD13E6F7
src/org/opengts/servers/tk10x/TrackServer.java=A32682BF06F01A2310FD7B25A6499103
src/org/opengts/tools/CheckInstall.java=69B72358800511F51C9226D5CF64D1E3
src/org/opengts/tools/LocalStrings_de.properties=8CD3BA53DCA33FBA00238E2F420AD56A
src/org/opengts/tools/LocalStrings_el.properties=9D188992FDBD37527437C3E3EA471861
src/org/opengts/tools/LocalStrings_en.properties=9D188992FDBD37527437C3E3EA471861
src/org/opengts/tools/LocalStrings_es.properties=37EDEFF2637A328AD321ED7603FCA2FE
src/org/opengts/tools/LocalStrings_fr.properties=9D9D50B5AFE5C047535CEC2BCBDCB1BE
src/org/opengts/tools/LocalStrings_hu.properties=9D188992FDBD37527437C3E3EA471861
src/org/opengts/tools/LocalStrings_it.properties=E0716DEF231D1814252746EDC3B32E78
src/org/opengts/tools/LocalStrings_nl.properties=9D188992FDBD37527437C3E3EA471861
src/org/opengts/tools/LocalStrings_pl.properties=9D188992FDBD37527437C3E3EA471861
src/org/opengts/tools/LocalStrings_pt.properties=9D188992FDBD37527437C3E3EA471861
src/org/opengts/tools/LocalStrings_ro.properties=9D188992FDBD37527437C3E3EA471861
src/org/opengts/tools/LocalStrings_ru.properties=9D188992FDBD37527437C3E3EA471861
src/org/opengts/tools/LocalStrings_sk.properties=9D188992FDBD37527437C3E3EA471861
src/org/opengts/tools/LocalStrings_sr.properties=9D188992FDBD37527437C3E3EA471861
src/org/opengts/tools/LocalStrings_tr.properties=D05CF3DC09297DD16BD0E3134117DD2A
src/org/opengts/tools/MergeLocalStrings.java=C232B4C9F2ACC7F66D0A8255F52A866F
src/org/opengts/tools/PrintProperties.java=F242DE307159B37C44AE6DF51C65843F
src/org/opengts/tools/package-info.java=B5433D0099D551EE5CC3DE153412B7EB
src/org/opengts/util/AbstractClientPacketHandler.java=999614C94DB9730EF93F0EF7EFCB23DE
src/org/opengts/util/Accelerometer.java=23BD8049EB93E806AC0D9D1427AA9BFB
src/org/opengts/util/AccumulatorBoolean.java=AC4B9768D4FDFFF0FA8E0E97FE3F4F97
src/org/opengts/util/AccumulatorDouble.java=739DC6EDDE9E02272AAE4734D483335B
src/org/opengts/util/AccumulatorInteger.java=6FB37D00E8C24161BECC090B767C284E
src/org/opengts/util/AccumulatorLong.java=010C4AC5B6D0BB98BADD8B63C06ACEDA
src/org/opengts/util/Base64.java=D289DB742A00D9533B1232AF3D88FEC9
src/org/opengts/util/CachedLogOutputStream.java=F7946411C0E7D0018F41665A38204BCB
src/org/opengts/util/Captcha.java=548809944A10933AAA6C07D013449BDD
src/org/opengts/util/Checksum.java=E9CA84FB1E354967389B52D4AA46C05F
src/org/opengts/util/ClientPacketHandler.java=FBD125F01EDAFB168FD518B208DB9413
src/org/opengts/util/ClientSocketThread.java=AF7E26BFFFEE116F5AA8C00149A2C4E7
src/org/opengts/util/ColorTools.java=B402E1EBDF0D0E256979E4DEEB490A66
src/org/opengts/util/CompiletimeVars.java=AC42EAE0B5C43C0D8C8E1502C6034E1E
src/org/opengts/util/CssStyle.java=F879B8210FB74CE9229A3F7201C0454C
src/org/opengts/util/CurveFit.java=71C46880B66A913F2DFAE70A608939F6
src/org/opengts/util/DatagramMessage.java=D1E3F01282ED0ADD88DDB4BA95220131
src/org/opengts/util/DateTime.java=381AE67A022E58118908762EB442B774
src/org/opengts/util/DayNumber.java=E5659F5F27968E4756A8205F24F60A6F
src/org/opengts/util/EMailContent.java=AC38AF0216E9C88DD877FF8650063D85
src/org/opengts/util/EnumTools.java=B1970C969578734466C979B772EE10D5
src/org/opengts/util/ExcelAPI.java=5A5C46C89CAD29B52E507D3F1898B16E
src/org/opengts/util/FileCache.java=C314CDFC709F2C684A6E808254C32A54
src/org/opengts/util/FileTools.java=DD819A8CF204000F44D035D98FF52A44
src/org/opengts/util/FletcherChecksum.java=F7DEC33316E519FE86C97C96BF3CB887
src/org/opengts/util/GeoBounds.java=8DB4BC157AA12314D7C695B84EC84977
src/org/opengts/util/GeoOffset.java=74E1CD0635EDD25B1D827C247C07FCE1
src/org/opengts/util/GeoPoint.java=615C2FEB273BB03539D044BB5C14CAD3
src/org/opengts/util/GeoPointProvider.java=C376AE5AEFA564FA0525E501E127A0B4
src/org/opengts/util/GeoPolygon.java=854107D67B698DD0C083A3C3638DC979
src/org/opengts/util/GeoRoute.java=CB0CD6033CC85B1D82510F9F5E6DF4B8
src/org/opengts/util/GeozoneChecker.java=346E8D66ACD80EEFB4365921AC7B9486
src/org/opengts/util/GetValue.java=C014E58BB585D6ACF45AF15973F14716
src/org/opengts/util/HTMLTools.java=4D6C9ECEDC59ADD8F27D51CFEEBF7074
src/org/opengts/util/I18N.java=D5C5FB6A0F3713046AF146DC54082AF4
src/org/opengts/util/IButton.java=6E69314291E11E24DAC89A5AC6F2517C
src/org/opengts/util/IPTools.java=0F1309A28EFCFCECA41839475D873F19
src/org/opengts/util/JSON.java=30DEB18734CF36DE7F75513EE5D67914
src/org/opengts/util/LicensePlate.java=18FC591533CCEEE6DC114FF1396B88F0
src/org/opengts/util/ListTools.java=55F6F5D6660D4B00663E13150F324220
src/org/opengts/util/LocalStrings_de.properties=9DCED6CDD072F87C1DE7AA972142DD70
src/org/opengts/util/LocalStrings_el.properties=C2DFF3C3C489BBECDB96725413CF69D7
src/org/opengts/util/LocalStrings_en.properties=8820F23312A20305B74D4F08E5513ACC
src/org/opengts/util/LocalStrings_es.properties=662B1D8D71532E9212C71E86D3656035
src/org/opengts/util/LocalStrings_fr.properties=231FF918B87C94C70612D2B7129321B7
src/org/opengts/util/LocalStrings_hu.properties=2F5B49B554E158E1AFB89AE709B8796E
src/org/opengts/util/LocalStrings_it.properties=D65443D19F3E1ED2E3CE4198BB42A18F
src/org/opengts/util/LocalStrings_nl.properties=AF0959655E85CC8FE3F75EDF0AEE5A9D
src/org/opengts/util/LocalStrings_pt.properties=70FE4022EC72ABC9F8C91DD26C4AD0C9
src/org/opengts/util/LocalStrings_ro.properties=AF80B6B20963AD597EAA2CA6B92D5924
src/org/opengts/util/LocalStrings_ru.properties=CA32BFD124E09DE305DBDEBA824CBAE1
src/org/opengts/util/LocalStrings_sk.properties=16487A11E33EB1B31BC53ED2DFF0B0D7
src/org/opengts/util/LocalStrings_sr.properties=6A4A096288194CA9F9AB14DB117F9A17
src/org/opengts/util/LocalStrings_tr.properties=69E02DC5D4A45DB64C456373C427177A
src/org/opengts/util/MACProvider.java=035FD4567BD04FD010CC9F70D894DD48
src/org/opengts/util/MapAdapter.java=C3CD24FBD028BDD5E16990FD922E286B
src/org/opengts/util/MemCache.java=4FF8FACB610663AE53DD85763A5EE15F
src/org/opengts/util/MemCacheAPI.java=B8130AFC23EAE97467468B17F486DBD9
src/org/opengts/util/MethodAction.java=2D60E4FA8638BCB12149EDE95585A3CC
src/org/opengts/util/Nmea0183.java=38BF47FA219D9446602143D59F6D426F
src/org/opengts/util/OAuth2AccessToken.java=3A42811A840AE92B0200741C91DC2029
src/org/opengts/util/OSTools.java=0B33E0B003DD36FAEAA97D32B6B71FC6
src/org/opengts/util/OrderedMap.java=4D7791E25478D7E3F2E397E4F03E915C
src/org/opengts/util/OrderedSet.java=2BEA3C2639EF87F71823DA48E700A9C7
src/org/opengts/util/Payload.java=4FF030CC00BEF5EA8A735A11B069E393
src/org/opengts/util/PeekInputStream.java=215FD0E7C5B6CDF9A646D1B3F72E8268
src/org/opengts/util/PixelDimension.java=18F64A67BACCF50A55488ED31DA62849
src/org/opengts/util/PixelPoint.java=DA0AF66A7A45592628CC15C24EB6C865
src/org/opengts/util/Print.java=5AC41BAA71322D33385F7C0F247DE798
src/org/opengts/util/PropertyProvider.java=8BD79742169205B3FADE27647863174D
src/org/opengts/util/RTConfig.java=BD4FFCF0AACC9EF7184AD2857C95C318
src/org/opengts/util/RTKey.java=6378DF4B7FD0BBB66659F45E32977797
src/org/opengts/util/RTProperties.java=EC793B2AC5C38A7F00A7AA2F51E64F8F
src/org/opengts/util/RemoteLogServer.java=9D8AA7571049A86A6B645E588FE345C9
src/org/opengts/util/SLIP.java=A7BE6E46935E57BE72285342CA9A8E36
src/org/opengts/util/SendMail.java=3B23B4EC4C2B0AE68B424BA8C1CA4C0F
src/org/opengts/util/SendMailArgs.java=B6AA4BF4DBA1E5734539A32CA8500210
src/org/opengts/util/ServerSocketThread.java=569A57EC3A8AB36889E047B607E1A5D6
src/org/opengts/util/ServiceRequest.java=4B86420FAD603D084D9D65D3DA2ECABF
src/org/opengts/util/SmtpProperties.java=F4E6871487A986E8E1714457B4DCDF57
src/org/opengts/util/StringTools.java=FC75AA4B97CC3594F907F0A89A561217
src/org/opengts/util/TabulatedList.java=A63C1C9BBD4826D71B9D8128D8CC134B
src/org/opengts/util/TabulatedMap.java=94DFDECFE47F90B31415CE0EB109D3D4
src/org/opengts/util/Temperature.java=825F0542CB373A156E879A400553ABB8
src/org/opengts/util/TemperatureRange.java=DAC0CB8F8C4531C7A3758842D0285FD4
src/org/opengts/util/TemperatureSet.java=5CAA6F47DAB3CEE635E6E43AE5A980D8
src/org/opengts/util/ThreadLocalMap.java=27217B60EBDA947F27E89EF9061F2A1D
src/org/opengts/util/ThreadPool.java=57BD8DEEE64B4A77114DEB06CEF9D384
src/org/opengts/util/TireState.java=653EB07CC7AB48C38BCDA757752046FE
src/org/opengts/util/TreeNode.java=446A3435F3D68086A6D06B43C2733D08
src/org/opengts/util/TriState.java=7FB6B8B3C225ED11C492B405107D0958
src/org/opengts/util/Tuple.java=E6B3ED2C8D121FA3CC67EAD09C02D0CD
src/org/opengts/util/URIArg.java=C6B5EE4E4A9FC8B9DF2A8480A77E074E
src/org/opengts/util/UserAgent.java=8EDF0F66935972DB68D8662EEE5E4D02
src/org/opengts/util/XMLTools.java=C0B13827289D259214C174C25527F8A0
src/org/opengts/util/XYPair.java=27CA7EA15ED81C54CA41AF56CC81D6AE
src/org/opengts/util/ZipTools.java=D50E9BA7B21859EC1558408C71852782
src/org/opengts/util/package-info.java=6182795EC14765DF6990439852ACC83B
src/org/opengts/war/ctrac/AuthorizedUser.java=C4A935662DBDE4C985B1B6806FF6717A
src/org/opengts/war/ctrac/CTCustomCommand.java=D8FC9F8374F73B9A4C452CE60C3BAA60
src/org/opengts/war/ctrac/CelltracGTS.java=553340BFD2208EA4079947D66493B41E
src/org/opengts/war/ctrac/CommandInterface.java=FAC9BC8719D571917E9953638D1A584B
src/org/opengts/war/ctrac/CommandInterfaceAdapter.java=20DE6A9EFD9A5887A65389A6FEDBEFBF
src/org/opengts/war/ctrac/CustomCommandInterface.java=A11E1057B0FCED55789E318852F1A1B7
src/org/opengts/war/ctrac/Response.java=163A5ED14D0CFE98F33F0990448C2A62
src/org/opengts/war/ctrac/ResponseException.java=64DECA63666D72D25FE7D1304D6ADFB0
src/org/opengts/war/ctrac/ServiceContextInterface.java=07DA59F034478906908BA84864284CFA
src/org/opengts/war/ctrac/ServiceFactoryInterface.java=678EBFC91B57F90F50B729AD2E22466B
src/org/opengts/war/ctrac/command/.command=5835C08C00EBA7658C1569D2346A2784
src/org/opengts/war/ctrac/command/Cmd_Sample.java=AC221E494955ACCE6CF93314FF85EDF8
src/org/opengts/war/events/Events.java=0A4F991BA84EF77910179827C8033B06
src/org/opengts/war/events/package-info.java=267E56DA08CF6B7E03BF7C0FE238A661
src/org/opengts/war/gc101/Data.java=4E41143C52FED0D8066EE7E226CE1416
src/org/opengts/war/gc101/README.txt=54A71F1B896B37E1BFDCED71A308DF73
src/org/opengts/war/gc101/package-info.java=8A879DD37255822BCADAA1FE982437EE
src/org/opengts/war/gprmc/Data.java=E428CFCE5FF357004B14021913830CE5
src/org/opengts/war/gprmc/package-info.java=5D56AA950BA74471A2FEDA361C6ACE6E
src/org/opengts/war/gpsmapper/Data.java=5C935B59188A894688B13D247E682397
src/org/opengts/war/gpsmapper/package-info.java=0290A44157E3BF81581B0DE5071EA99A
src/org/opengts/war/maps/JSMap.java=A2BFC889BAC7E2E6535B419E12D0BB88
src/org/opengts/war/maps/LocalStrings_de.properties=4E699AF57DE24C4ADFF74A44106738B6
src/org/opengts/war/maps/LocalStrings_el.properties=63652BC70AE21975BAE46543A40CE5D2
src/org/opengts/war/maps/LocalStrings_en.properties=8EA7E70A260A2A7818BC151112E68529
src/org/opengts/war/maps/LocalStrings_es.properties=2C3E2F8539D153DCE6D27BBB0B3ED5E0
src/org/opengts/war/maps/LocalStrings_fr.properties=FB0FF8942B08694DCC9FA23EC5A588AD
src/org/opengts/war/maps/LocalStrings_hu.properties=F07C668A72CBC32DF391D345A37F24CA
src/org/opengts/war/maps/LocalStrings_it.properties=F348037E4C05E1E60B2A8E720AF344A0
src/org/opengts/war/maps/LocalStrings_nl.properties=63AAA7EA32BA68F74B32ED9216D61C98
src/org/opengts/war/maps/LocalStrings_pl.properties=4A521915A010609802E96BC4BB095E91
src/org/opengts/war/maps/LocalStrings_pt.properties=E865A059014B867A077E29DB26F55C12
src/org/opengts/war/maps/LocalStrings_ro.properties=7E283ADB43F762B6F356C22E074C4C48
src/org/opengts/war/maps/LocalStrings_ru.properties=D004BF4C4517590A1796498E437C107F
src/org/opengts/war/maps/LocalStrings_sk.properties=8FD5BE1C1CC4AC4B17DC0B0D2FB71F63
src/org/opengts/war/maps/LocalStrings_sr.properties=0254A390D29E31F56B19A0CD3594B768
src/org/opengts/war/maps/LocalStrings_tr.properties=BE625D4E5F8EC6B0DCF7AF8B7BA2BBD3
src/org/opengts/war/maps/jsmap/BingMaps.java=9B7C8AE2372FFCBCFC74E92020612967
src/org/opengts/war/maps/jsmap/GoogleMaps.java=24FE598CDBDD81EA6B53FE56200EC594
src/org/opengts/war/maps/jsmap/Leaflet.java=A0CE96A69F398E56E2DEE362E879EE9A
src/org/opengts/war/maps/jsmap/LocalStrings_de.properties=FD2A68F017C5075F701F72CD38B69AAB
src/org/opengts/war/maps/jsmap/LocalStrings_el.properties=05928D9CB71B4D5E1241249FC23B3515
src/org/opengts/war/maps/jsmap/LocalStrings_en.properties=87752E7CAE947461D9558FC787E9052F
src/org/opengts/war/maps/jsmap/LocalStrings_es.properties=6551CCDEF8CE6033AAD7D0D7570689CF
src/org/opengts/war/maps/jsmap/LocalStrings_fr.properties=108C69FB8F3F49DBAA549E9F83D59AD9
src/org/opengts/war/maps/jsmap/LocalStrings_hu.properties=B028C3D3888FC2F68FD4AE9EAB9F97DB
src/org/opengts/war/maps/jsmap/LocalStrings_it.properties=06FFE65ED2A3D9140A1C3348EA2AF6EC
src/org/opengts/war/maps/jsmap/LocalStrings_nl.properties=373A1DF39F47A009E577929C2CD4DBF1
src/org/opengts/war/maps/jsmap/LocalStrings_pl.properties=61F6C651022A9BC4A52D792AC1D3E7D0
src/org/opengts/war/maps/jsmap/LocalStrings_pt.properties=505AF7E7A257DA2447AC303F6A430D20
src/org/opengts/war/maps/jsmap/LocalStrings_ro.properties=68AD17C527AD09BFB09AE2C7F021AECB
src/org/opengts/war/maps/jsmap/LocalStrings_ru.properties=A538666894C833A6D3E4DF1A65E38C01
src/org/opengts/war/maps/jsmap/LocalStrings_sk.properties=CFAFDD63BB56979309F816A375416E90
src/org/opengts/war/maps/jsmap/LocalStrings_sr.properties=E73923BCF58FED0C990C1A7AAA4E2B11
src/org/opengts/war/maps/jsmap/LocalStrings_tr.properties=3F9699D0E74E76FCC04D9F26997730F2
src/org/opengts/war/maps/jsmap/Mapstraction.java=A49AF79B633B78EF0288E86D9D0376D4
src/org/opengts/war/maps/jsmap/OpenLayers.java=AF0C9E1518193542385A35B88865BF08
src/org/opengts/war/maps/jsmap/VirtualEarth.java=E661F7BC3887573E6669DAD03401D16D
src/org/opengts/war/maps/jsmap/package-info.java=C3FE019AEC73D1FB9BD1E9E78709A3B1
src/org/opengts/war/maps/package-info.java=D08EE46FFC9AD847247E0803886702BC
src/org/opengts/war/model/AccountModel.java=0AF2F3E5A2669F7D7F75BBAD725C11A6
src/org/opengts/war/model/ButtonModel.java=7B51787A754B87DDFF81F3DEA1114819
src/org/opengts/war/model/DashboardModel.java=629D561E9FE814E3F3F9DAD58CFD3860
src/org/opengts/war/model/DataModel.java=213C5573B60558F707ED791FF71226BC
src/org/opengts/war/model/DeviceModel.java=37CF530F94338F6E1F9AFC8FB000A0BB
src/org/opengts/war/model/FTLKeyValueHash.java=16AE4ABE9A5AA280A9E41FD768A77121
src/org/opengts/war/model/FieldListModel.java=89B1B99F4FFD85E2E670FDC7DD3AFFF8
src/org/opengts/war/model/FieldModel.java=39313AC3F30334EDB689272F0C3AAA37
src/org/opengts/war/model/FormModel.java=D1918FECE62C37BAAD8ED1FCB94BDDF4
src/org/opengts/war/model/LocalStrings_de.properties=81B3CCC3E4A3B6607AA07F41AFBEA303
src/org/opengts/war/model/LocalStrings_el.properties=78ED96B2FB21584D844BB1CFBA9400BD
src/org/opengts/war/model/LocalStrings_en.properties=C152698CC6088E0C44988BDF2FD56676
src/org/opengts/war/model/LocalStrings_es.properties=53DF2B0240FEAA0D30C5A0EBA6773C69
src/org/opengts/war/model/LocalStrings_fr.properties=CB597FE21ECED0B1AD0E95F30D475F1B
src/org/opengts/war/model/LocalStrings_hu.properties=E4E157F48E7D41F005223AA7922C22C2
src/org/opengts/war/model/LocalStrings_it.properties=0CB110EA98FAEC9996ED93A5E96C6668
src/org/opengts/war/model/LocalStrings_nl.properties=702F45E2ECF602743C82FD0E3EDC9959
src/org/opengts/war/model/LocalStrings_pt.properties=ECCD8D14010AD7873168D663D89823C6
src/org/opengts/war/model/LocalStrings_ro.properties=A3EB3AC6DA2DD3594A39A9EF7DF56E8D
src/org/opengts/war/model/LocalStrings_ru.properties=CD9012A0D877CBA40439E5D7E40515A9
src/org/opengts/war/model/LocalStrings_sk.properties=0DD7483C4020E96CE1D2E798AFFD191F
src/org/opengts/war/model/LocalStrings_sr.properties=353ECFC2F58C2BFA95703427CA9D5083
src/org/opengts/war/model/LocalStrings_tr.properties=4DDD5AF0CC3F634589826BC6985E5FE8
src/org/opengts/war/model/MenuGroupModel.java=D80E533B7872FE7F7DF8060CE79E6B03
src/org/opengts/war/model/MenuItemModel.java=3C06589D7A72A27AF675AFFD4383E9FE
src/org/opengts/war/model/PropertyModel.java=B0179D66A366F175CC27A67413260439
src/org/opengts/war/model/README.txt=94DD1922246B792B9ED5A6CD13F9C0B0
src/org/opengts/war/model/SelectionListModel.java=020C589503169F59C76D36DBE9DF624F
src/org/opengts/war/mologogo/Data.java=4DD22434F7C20C74684793ECC4CA06D4
src/org/opengts/war/mologogo/package-info.java=0AD752B645CDA87EFAADE2D922C93CAC
src/org/opengts/war/report/CSSRowClass.java=B036F3AD8BAD2B2AFB2C97617F6542B0
src/org/opengts/war/report/ColumnValue.java=2ADA0037CB437E64C358D0F57DA25767
src/org/opengts/war/report/DBDataIterator.java=1C2C3EDAB718B840B5ED1FBA63DF5790
src/org/opengts/war/report/DBDataRow.java=B055F3C1F198A0A5EAB4E282731FC827
src/org/opengts/war/report/DBDataRowAdapter.java=E00FBA5B7A15D9CEB4422FDA0AAA4A4A
src/org/opengts/war/report/DataColumnTemplate.java=7BC6769FE6639E24F612AE77FBF06D82
src/org/opengts/war/report/DataRowTemplate.java=B5A9B63CF7439C593759A00F1C73C8CE
src/org/opengts/war/report/LocalStrings_de.properties=533781066ABDE4DEE556BA9E03759755
src/org/opengts/war/report/LocalStrings_el.properties=2A51EC4907FD9C6917765C1A6D8C889F
src/org/opengts/war/report/LocalStrings_en.properties=AF93E23CD5566D530E3946EB48F26D73
src/org/opengts/war/report/LocalStrings_es.properties=CC881F0E672787E903C268EA07EA42AD
src/org/opengts/war/report/LocalStrings_fr.properties=56DF30685F0D5F5062663AEE7F296315
src/org/opengts/war/report/LocalStrings_hu.properties=DB898905A0622E18079032198EC50A2D
src/org/opengts/war/report/LocalStrings_it.properties=C534101A8256333F820A51C84999E165
src/org/opengts/war/report/LocalStrings_nl.properties=BE4C3AE503F17A1849A1762FB13D5FB3
src/org/opengts/war/report/LocalStrings_pl.properties=4C126C73605B9A06FA7CC5BE2B50E894
src/org/opengts/war/report/LocalStrings_pt.properties=B707C56864D914BC0CC096FBD4D1CC85
src/org/opengts/war/report/LocalStrings_ro.properties=52B767DF74B10DCDD022DC0BE4DC4834
src/org/opengts/war/report/LocalStrings_ru.properties=F08A31E16BBC18FD3A0AF24A1C4084E6
src/org/opengts/war/report/LocalStrings_sk.properties=DC5FBB5F1CCFBA0846C03152269CBD3B
src/org/opengts/war/report/LocalStrings_sr.properties=9153031D277D7102357DBDB71426F83D
src/org/opengts/war/report/LocalStrings_tr.properties=6F4F2A8A4C847FB6237D4E92625E3825
src/org/opengts/war/report/ReportAccountException.java=CF208F6E1E3E69CEFC9CC3F2C1613221
src/org/opengts/war/report/ReportCallback.java=1477A1A5F465ED261D3E52A9D3216726
src/org/opengts/war/report/ReportColumn.java=D4D6E8BFAFFCC3E6C0F250B1CDCCD4E9
src/org/opengts/war/report/ReportConditional.java=A28953354DF6468DC2AFA4934EE084D3
src/org/opengts/war/report/ReportConstraints.java=52F5A7169CAFDD02C886DCC631856B9D
src/org/opengts/war/report/ReportData.java=005E4D710447B3D24FB1466631ACF457
src/org/opengts/war/report/ReportDeviceException.java=9A8928A9D2F2E213FC3AC38E9282F824
src/org/opengts/war/report/ReportDeviceList.java=B49AB9ADAA6A19A7376AA71E06167A24
src/org/opengts/war/report/ReportEntry.java=E3B548C560ACDC8DBC398386CCCFC5DC
src/org/opengts/war/report/ReportException.java=AABAD04CC3616112A0B8A5843D4B59E4
src/org/opengts/war/report/ReportFactory.java=2192A1B2ADD1238F5CF31998B712125E
src/org/opengts/war/report/ReportHeaderGroup.java=91B7F8249266426DF0D002B6E20A954C
src/org/opengts/war/report/ReportLayout.java=D2C8F1EB1A99D43118FF2406AE8C0C6C
src/org/opengts/war/report/ReportOption.java=143D17C72B775A2AD75308D36F875C2F
src/org/opengts/war/report/ReportOptionsProvider.java=6C478334C6ECEB8070E08A1B59F5554D
src/org/opengts/war/report/ReportPresentation.java=BD2A68C83BA76DD1B9FA79ABFECCF613
src/org/opengts/war/report/ReportSpreadsheet.java=16D3FD01F93DBD9309B299E790CD6845
src/org/opengts/war/report/dmtp/DiagnosticReport.java=5B5785835588E3BCC64639D55123259B
src/org/opengts/war/report/dmtp/PropertyReport.java=64DE3000F1D5ADD573569BDBB3990CF2
src/org/opengts/war/report/dmtp/package-info.java=05EC1BCB4E2521DFEEC2E85EAEBA06BE
src/org/opengts/war/report/event/EventDataLayout.java=CABC33FA39A719E9ACEF8F344726FE45
src/org/opengts/war/report/event/EventDetailReport.java=B0104C7E5EB3215A8775E3E4532721DA
src/org/opengts/war/report/event/EventSummaryReport.java=820B31370AC3237FD8FDC7CB7FB65A80
src/org/opengts/war/report/event/LocalStrings_de.properties=2DA71C19190C743F1B594B5DA27D2F85
src/org/opengts/war/report/event/LocalStrings_el.properties=89D930776A79DB3EA64FA45B92AC1662
src/org/opengts/war/report/event/LocalStrings_en.properties=397F836EDAF0B185D69926CC0F9F3755
src/org/opengts/war/report/event/LocalStrings_es.properties=3DE7141F6150F6C85DD4D303AC943B34
src/org/opengts/war/report/event/LocalStrings_fr.properties=7933762600FCFDAECDD377AA3C9E5CE4
src/org/opengts/war/report/event/LocalStrings_hu.properties=0EAF3C4C783E2FA189603D2486B2F538
src/org/opengts/war/report/event/LocalStrings_it.properties=A9E7C5F068C0D58321327D465898A48A
src/org/opengts/war/report/event/LocalStrings_nl.properties=C94CB55272421D5F92E8664BBFBD36A2
src/org/opengts/war/report/event/LocalStrings_pl.properties=A7CD673502A316B3097DA4426D9FF75D
src/org/opengts/war/report/event/LocalStrings_pt.properties=DEA42E7DF9FCFEC0D0DE1BAD3A0FDBD7
src/org/opengts/war/report/event/LocalStrings_ro.properties=F875FE1A83D10A0FC874BEF035F6775E
src/org/opengts/war/report/event/LocalStrings_ru.properties=CC8B3AAE6F83436D349323B56EA7CD8E
src/org/opengts/war/report/event/LocalStrings_sk.properties=1B23E7AED5FFA83944C23E88E87368D7
src/org/opengts/war/report/event/LocalStrings_sr.properties=0363A09864B40A5C9F9C80038A30E8C5
src/org/opengts/war/report/event/LocalStrings_tr.properties=DE30EFB56163AB75FCC0E1629B19FD84
src/org/opengts/war/report/event/package-info.java=ABA22F260A0D3E34348F80CECD74D1E2
src/org/opengts/war/report/field/EventCountReport.java=94CD42BDFA2E5DE25A501A26D2B3FD97
src/org/opengts/war/report/field/FieldData.java=844DD5E3DD947F31531D8BF2DA4C3D29
src/org/opengts/war/report/field/FieldLayout.java=0B01C2E2B69496861200E4ACE6354B34
src/org/opengts/war/report/field/LocalStrings_de.properties=913C4717AD082FAF567C5C6B05BF6F7F
src/org/opengts/war/report/field/LocalStrings_el.properties=20B370B4D42DD8F7EE7CD23BFEBA5BE9
src/org/opengts/war/report/field/LocalStrings_en.properties=5D52A2B1B4DBAFE6090D56D08DAF09F9
src/org/opengts/war/report/field/LocalStrings_es.properties=EBBA4A2A562E7FCAD7DE7D55CFE0597E
src/org/opengts/war/report/field/LocalStrings_fr.properties=8C943B8F685DA937EB734A14EE5912FA
src/org/opengts/war/report/field/LocalStrings_hu.properties=0936EA1306B2348A8493EF9D5D82039C
src/org/opengts/war/report/field/LocalStrings_it.properties=E328DF3D8AD9FA1445A97D19FC619DF0
src/org/opengts/war/report/field/LocalStrings_nl.properties=F81B634411F74EBA224F4F0116B89BCA
src/org/opengts/war/report/field/LocalStrings_pl.properties=3B01038D596D52B45A4D970E92D7EF23
src/org/opengts/war/report/field/LocalStrings_pt.properties=CE1A5F729D39C3C83C5A20868F19DF86
src/org/opengts/war/report/field/LocalStrings_ro.properties=703044EB591CF7FB4FC58A839E91D586
src/org/opengts/war/report/field/LocalStrings_ru.properties=34A7F0F83E38F179129EE50B73F76227
src/org/opengts/war/report/field/LocalStrings_sk.properties=F6B5250DB64D1E145ED73A31A2DC57EC
src/org/opengts/war/report/field/LocalStrings_sr.properties=0A6EF64AAEC6FF101E95C233869FDA44
src/org/opengts/war/report/field/LocalStrings_tr.properties=99A88D64CE9E7D1279B7B6163A99B078
src/org/opengts/war/report/field/MotionReport.java=4D89B836CA75A631FDDA29C5158C353E
src/org/opengts/war/report/field/package-info.java=AC4158B79599728DCF96CAA1B643D89A
src/org/opengts/war/report/package-info.java=231B8B6ACB830495275D060B3E481A1E
src/org/opengts/war/report/presentation/BodyColumnTemplate.java=AEE4C7CCDB6CD1D37C0DBBB09B42CBAA
src/org/opengts/war/report/presentation/BodyRowTemplate.java=6816A8C0DD8DBF57FE24318AF35D2331
src/org/opengts/war/report/presentation/HeaderColumnTemplate.java=50969D43D93940BC71090B0D520B58D9
src/org/opengts/war/report/presentation/HeaderRowTemplate.java=A950039E1D1CF0D4F27BAB6B723DF374
src/org/opengts/war/report/presentation/LocalStrings_de.properties=5B41B4118128D09D89AE8778ABD9B818
src/org/opengts/war/report/presentation/LocalStrings_el.properties=43594C03A483BA96C39F38ABB448E087
src/org/opengts/war/report/presentation/LocalStrings_en.properties=63690EE8B93D2CFB8CBA57075D43907D
src/org/opengts/war/report/presentation/LocalStrings_es.properties=3069A3427DD7FE9BFEFD149788D97F50
src/org/opengts/war/report/presentation/LocalStrings_fr.properties=E4488CB65B7FCCE5A645362F1EAD7D50
src/org/opengts/war/report/presentation/LocalStrings_hu.properties=FF44A95698384E0D7B6A6B3BAA31FC10
src/org/opengts/war/report/presentation/LocalStrings_it.properties=ED1675E31C1E47D1A3A668DED346EBF4
src/org/opengts/war/report/presentation/LocalStrings_nl.properties=FB37DBF71240791904C83853411E6DDE
src/org/opengts/war/report/presentation/LocalStrings_pl.properties=26BF4EABF7A10B24FCE7A35970466F8B
src/org/opengts/war/report/presentation/LocalStrings_pt.properties=FC71679735FA7356ECD2C1B9BB2BE5DC
src/org/opengts/war/report/presentation/LocalStrings_ro.properties=21AD32074EDFEA48D818351D7859743E
src/org/opengts/war/report/presentation/LocalStrings_ru.properties=A52A95474453EBD0BC4CCA2A884A55DD
src/org/opengts/war/report/presentation/LocalStrings_sk.properties=5D5FF38C4598639B49B48A9B57BD1AB8
src/org/opengts/war/report/presentation/LocalStrings_sr.properties=D72577319EEA633A82B15DC34198F249
src/org/opengts/war/report/presentation/LocalStrings_tr.properties=E059373CBF14B90CB646DD64A86BB43A
src/org/opengts/war/report/presentation/ReportBody.java=58EF1810A35A7413CFAB3F065E4EE2E2
src/org/opengts/war/report/presentation/ReportHeader.java=311ECB73F4ED00380251A6043CAE51AF
src/org/opengts/war/report/presentation/ReportTable.java=2D45F7F3FE95C9CE8B1E38F07B3118EF
src/org/opengts/war/report/presentation/package-info.java=D043A99D33366F056105FF400CA58473
src/org/opengts/war/tools/AttributeTools.java=6D6B910BD6AE20D3F30B47C85DB6F1D2
src/org/opengts/war/tools/BufferedHttpServletResponse.java=D657027FC519A39F6910BFDCA3537F5B
src/org/opengts/war/tools/BufferedServletOutputStream.java=0C1943A05868DCD89D376023A458DC68
src/org/opengts/war/tools/ComboMap.java=49B2D0E140806ABA99FAC87E317E7EC4
src/org/opengts/war/tools/ComboOption.java=8A9E1234614D25CD97F5698263FEDDA8
src/org/opengts/war/tools/CommonServlet.java=53C93063FB16579C80C4EEA5F1E42463
src/org/opengts/war/tools/FileDownloadHandler.java=8EE6192D6402E4A11525D2ABFAE41FE2
src/org/opengts/war/tools/FileUploadHandler.java=13CB17E69FE0A1B1155FE6A48230288C
src/org/opengts/war/tools/HTMLOutput.java=DCC4F9BB8D3C4CD8D5D798EF9167372E
src/org/opengts/war/tools/IDDescription.java=76F486740BEEE6FC8185748F28B78E94
src/org/opengts/war/tools/JSONRequestHandler.java=58A5AD7D006C6ED028DA7B4E18E9A754
src/org/opengts/war/tools/JavaScriptTools.java=2368763D06006F7255F2936BA33CF4A8
src/org/opengts/war/tools/LocalStrings_de.properties=6DDBE28F5BF8E8B0FEAE878BD455F6C3
src/org/opengts/war/tools/LocalStrings_el.properties=589E5E258F1653FF9C39A900C8407A2A
src/org/opengts/war/tools/LocalStrings_en.properties=6AE5504F9672868614BD63E2770C5DBB
src/org/opengts/war/tools/LocalStrings_es.properties=0A8B83846308EFB68A8DBD0AB8F1AD85
src/org/opengts/war/tools/LocalStrings_fr.properties=BFDCD2210F362FB4A0D0DCAE6EC8A7A9
src/org/opengts/war/tools/LocalStrings_hu.properties=6C095903ED747A2B489E809CABAB08B3
src/org/opengts/war/tools/LocalStrings_it.properties=0FA1D8A1DAF03172D9F04AFB01B4EB57
src/org/opengts/war/tools/LocalStrings_nl.properties=EAA96698C0C7F32144357FC3394EE3E2
src/org/opengts/war/tools/LocalStrings_pl.properties=86D0555D341CD4CB0724825EC00B09FF
src/org/opengts/war/tools/LocalStrings_pt.properties=0395992E8F114D4DE1B0396DFCEB27E9
src/org/opengts/war/tools/LocalStrings_ro.properties=0A4E9C932F20B08AB6F04D5BED5D58ED
src/org/opengts/war/tools/LocalStrings_ru.properties=A7EE50A0D65A9FB4BC056D9439D469BA
src/org/opengts/war/tools/LocalStrings_sk.properties=CE3B581E6B6234CD6D42FB3C1A89921A
src/org/opengts/war/tools/LocalStrings_sr.properties=CF3ABFA550B6A9922DC924877974E865
src/org/opengts/war/tools/LocalStrings_tr.properties=EAD201FD009B7BBD482672A068A6A1AF
src/org/opengts/war/tools/MapDimension.java=3D55C587C98DFE31337A1D4C6D8A5E25
src/org/opengts/war/tools/MapProvider.java=0989A892770E147EBF3D26EF84F6CFDF
src/org/opengts/war/tools/MapProviderAdapter.java=D3589D182F67C8DB91DD22E2583A99DE
src/org/opengts/war/tools/MapProviderFactory.java=0DE1FE49301B33645C0264218296CC7C
src/org/opengts/war/tools/MapShape.java=C705949F6943372FFF89D960D054AC9F
src/org/opengts/war/tools/MenuBar.java=E91A50CBC7CEE390596BA9C8F7D16A02
src/org/opengts/war/tools/MenuGroup.java=699CE1D97E9995AD1BF927E303C258EE
src/org/opengts/war/tools/OutputProvider.java=C658FF57124310300EB1334AABED1371
src/org/opengts/war/tools/PageDecorations.java=A2678B8E01B100FBA619984CD4AE2FEC
src/org/opengts/war/tools/PageDecorationsAdaptor.java=46714C481E67269F60D7C504902567CE
src/org/opengts/war/tools/PageDecorationsDefault.java=5B4630101940154AF6A2DDF7CBED0493
src/org/opengts/war/tools/PrivateLabel.java=1D262C2165134A2FB90411AED2D9795D
src/org/opengts/war/tools/PrivateLabelLoader.java=F97CFB7772D120AB4C3DB817A5101CA1
src/org/opengts/war/tools/PushpinChooser.java=AA0D7359A552EBB03DF018432821203C
src/org/opengts/war/tools/RTConfigContextListener.java=792732D4B6CEE782D7E9F615E942BD95
src/org/opengts/war/tools/RequestProperties.java=C2307B9A6E6200A6A6C69CA8034D3C49
src/org/opengts/war/tools/WebPage.java=6EC442653D46E32E923BA15666A34932
src/org/opengts/war/tools/WebPageAdaptor.java=8ECAE43D3024E86397E0A328A5B2929F
src/org/opengts/war/tools/WebPageURL.java=D58C5377689181D38E7C66B68B88D8E9
src/org/opengts/war/tools/package-info.java=B62613C7E140CE3DBCFC183F69E703CF
src/org/opengts/war/track/Calendar.java=D323A6A77E5B6E89551A1332C5964196
src/org/opengts/war/track/CharacterEncodingFilter.java=9732668EBFB0F0F8C0DF6181D2B80BAB
src/org/opengts/war/track/Constants.java=87593FF582B7F3F702BE368A929C273C
src/org/opengts/war/track/DeviceChooser.java=B06D6FC0DDF1FAB49977707FAAE33935
src/org/opengts/war/track/EMail.java=5836BC91CD739C2F409C681EBE08E2F3
src/org/opengts/war/track/ExpandMenu.java=FDDBEBBDDE134127DEDE49F6CD022C40
src/org/opengts/war/track/IconMenu.java=DE58A58D89198D8F7736F5F002BD83FD
src/org/opengts/war/track/LocalStrings_de.properties=C563956A3B1D7F0A51AC5274256800CB
src/org/opengts/war/track/LocalStrings_el.properties=C45EB9CAA03F867611D370FE2E77E876
src/org/opengts/war/track/LocalStrings_en.properties=ACD2943F84901F7DB98958B0F6BAF73B
src/org/opengts/war/track/LocalStrings_es.properties=84170D51D73570B9019066B44319DF95
src/org/opengts/war/track/LocalStrings_fr.properties=FE01857B0EB09FF7E8318EB696DED0C4
src/org/opengts/war/track/LocalStrings_hu.properties=C4752A9302F026BA08427EB2FB44A131
src/org/opengts/war/track/LocalStrings_it.properties=D7CC2BCD02591587244955640463205A
src/org/opengts/war/track/LocalStrings_nl.properties=DF2A2FFB5F85C35CE9351467CD481709
src/org/opengts/war/track/LocalStrings_pl.properties=AB74E2AFB3E2BC250B9D3C3BDF65746C
src/org/opengts/war/track/LocalStrings_pt.properties=76F36BC9B3B4F99B0FE6E36B37B4EE3C
src/org/opengts/war/track/LocalStrings_ro.properties=2E9A85C67A739ED7FF4B220BCD90A2B8
src/org/opengts/war/track/LocalStrings_ru.properties=387D3F3DD9F8D75AD82B628F8B9FD957
src/org/opengts/war/track/LocalStrings_sk.properties=AC13CB70571CEB4ED705227C04B0B6C4
src/org/opengts/war/track/LocalStrings_sr.properties=98CBE9CB121646B6FBBA633543598355
src/org/opengts/war/track/LocalStrings_tr.properties=A75B299C3D760143C9BDF2ECD29A9657
src/org/opengts/war/track/Track.java=F0608F1375551C3E685FE58170FFD50B
src/org/opengts/war/track/command/.command=6E7189C0F3692C6FC097CFFF93556B6A
src/org/opengts/war/track/custom/.commands=D7ACC0F88758ECBC4F313196499202EE
src/org/opengts/war/track/custom/DeviceCommand.java=5568D4FA6B76A347D4F5B7D4E87A3803
src/org/opengts/war/track/custom/GeocoderCommand.java=8ACA040BA630E405B67447CBC0199469
src/org/opengts/war/track/custom/MenuCommand.java=02437057D2CF67A6C906B364E5C67CE8
src/org/opengts/war/track/custom/UserCommand.java=3CE765E2C11079FD39A8D61D7EABD0BF
src/org/opengts/war/track/package-info.java=19CDED854B196142DAE83F2563DF6AD3
src/org/opengts/war/track/page/AccountInfo.java=8D1394EB27C1BFF798081FA76A600627
src/org/opengts/war/track/page/AccountLogin.java=25A3549C1396A05749FF80ECFF5008E9
src/org/opengts/war/track/page/ChangePassword.java=76C9BBB6B638D2DBB7C54264FCFCE67E
src/org/opengts/war/track/page/DeviceCmdHandler.java=2A8A7BC94D3ACF4D62646477D3900EF7
src/org/opengts/war/track/page/DeviceCmdHandlerAdapter.java=0FC9CAA7D9F20C9C4D8010049AC820B9
src/org/opengts/war/track/page/DeviceInfo.java=D4B64D41F8F9C5F244055C835514553B
src/org/opengts/war/track/page/DriverInfo.java=AE88192DA92189AD005CE2588C980AD4
src/org/opengts/war/track/page/ForgotPassword.java=D1732881B8E8D8A1C1AA16F3D1AE5CD1
src/org/opengts/war/track/page/GroupInfo.java=D75C03AFD3A9A25AF564F48B4D8E6A3B
src/org/opengts/war/track/page/HtmlWrapper.java=CBAF626C81A7F710154B2E8969975B25
src/org/opengts/war/track/page/LocalStrings_de.properties=70ECCBDA1DB214B9A0F876DBFED23185
src/org/opengts/war/track/page/LocalStrings_el.properties=352B1A767C5E31F2964A51DFA0F7F711
src/org/opengts/war/track/page/LocalStrings_en.properties=D2589774AF1CB46FF6352823ED0CB8B2
src/org/opengts/war/track/page/LocalStrings_es.properties=E7562B5FA864734FDB45FE09C0F33B67
src/org/opengts/war/track/page/LocalStrings_fr.properties=48FCF6C64BD51C3C998302F641E2401B
src/org/opengts/war/track/page/LocalStrings_hu.properties=5BBF345EF84BF526935D463E4C269B2F
src/org/opengts/war/track/page/LocalStrings_it.properties=9E2155A372486E4D4B27393903AFF439
src/org/opengts/war/track/page/LocalStrings_nl.properties=1EE9C740BB7DA56754D11B296A15BED5
src/org/opengts/war/track/page/LocalStrings_pl.properties=1AD418C3161EB06FF97F6E9B342EDD18
src/org/opengts/war/track/page/LocalStrings_pt.properties=1BBAC9677A1C579288AD497C6FB3106D
src/org/opengts/war/track/page/LocalStrings_ro.properties=BAABA2C28BC39322B9A0602E76B8D10F
src/org/opengts/war/track/page/LocalStrings_ru.properties=F1CB34E617A86510BD3390A8F7AC729C
src/org/opengts/war/track/page/LocalStrings_sk.properties=FADD135D53A93795A7B40E446F750612
src/org/opengts/war/track/page/LocalStrings_sr.properties=91599E8D742D9E68B6454EB04A4A1178
src/org/opengts/war/track/page/LocalStrings_tr.properties=821A2A65BF2DE6BD9BC31B4A8C5EF1A5
src/org/opengts/war/track/page/NewAccount.java=18622C0A39DA7F06F149461BCAF10126
src/org/opengts/war/track/page/ReportDisplay.java=C5F37630DA6D92315A90900D34ABA3F6
src/org/opengts/war/track/page/ReportMenu.java=2AEB4391CC9F10E0CA1D956802F98D03
src/org/opengts/war/track/page/ReportMenuDeviceDetail.java=1D87D1DAF8C57BEA06A12D2B17BE5FBA
src/org/opengts/war/track/page/ReportMenuDevicePerformance.java=082DE0890CE6D8D3E12BDD99B80CF865
src/org/opengts/war/track/page/ReportMenuDriverPerformance.java=2CDAD66A76BDAE6DF7E6D2BBB1E64B79
src/org/opengts/war/track/page/ReportMenuFleetDetail.java=5905DA8FC089B7F79B98F6A395FFDC5E
src/org/opengts/war/track/page/ReportMenuFleetSummary.java=B8E85DDB566DEA26396F28799DA61039
src/org/opengts/war/track/page/ReportMenuIFTA.java=63972990BE4D5985C950540807878590
src/org/opengts/war/track/page/ReportMenuSysAdmin.java=1731EAA66FE1141F31E8DA5B603A5DFB
src/org/opengts/war/track/page/ReportMenuTableAdmin.java=F71905776A89595C90917EAE35145944
src/org/opengts/war/track/page/SysAdminAccounts.java=09D7C36DEF0B425398E8E56340B69B1C
src/org/opengts/war/track/page/TopMenu.java=3FAABDE7E4C12EEFCCA0C7808C18BC1A
src/org/opengts/war/track/page/TrackMap.java=15F3049080074DAC90AFE1C959B78E4D
src/org/opengts/war/track/page/TrackMapDevice.java=7F903273D7841CE38DBD0ED54D820D37
src/org/opengts/war/track/page/TrackMapFleet.java=A9DE91692D827A1CACA2CBC77FE9F828
src/org/opengts/war/track/page/UserInfo.java=F65E2D17BD572DB63AFF105F02D5940F
src/org/opengts/war/track/page/ZoneInfo.java=A35FA3C88847580AD48BB91E0B6D0AFD
src/org/opengts/war/track/page/devcmd/DeviceCmd_SMS.java=88A7F68F14AF54B2B262D790D34EF8DA
src/org/opengts/war/track/page/devcmd/DeviceCmd_gtsdmtp.java=F0C8610A090344CF945AA5C2C276849D
src/org/opengts/war/track/page/devcmd/LocalStrings_de.properties=8CF6CE679D6F09709124B8704AB948A2
src/org/opengts/war/track/page/devcmd/LocalStrings_el.properties=4E7B2F49BCCE66572106D7FC095A1E2E
src/org/opengts/war/track/page/devcmd/LocalStrings_en.properties=BA52A7C5ACE2F917D18CBE48786736BE
src/org/opengts/war/track/page/devcmd/LocalStrings_es.properties=D8E945DDE376768C6E34617C1E89C1D4
src/org/opengts/war/track/page/devcmd/LocalStrings_fr.properties=08B920C393357DE405137D134F53E7B8
src/org/opengts/war/track/page/devcmd/LocalStrings_hu.properties=0ADCDF1CD17F3C7AA38C75191ABC2333
src/org/opengts/war/track/page/devcmd/LocalStrings_it.properties=9E435DCE0C6F26A03551EE769371C2EA
src/org/opengts/war/track/page/devcmd/LocalStrings_nl.properties=8D83F23F18FE675FE0CAD08B9687B4D5
src/org/opengts/war/track/page/devcmd/LocalStrings_pl.properties=D700D0A146A48E9727A94811C9D34614
src/org/opengts/war/track/page/devcmd/LocalStrings_pt.properties=D20994C7FBCD3229B979CC4008855B89
src/org/opengts/war/track/page/devcmd/LocalStrings_ro.properties=E2702CE5C017316BF01F5DC0584E7BBE
src/org/opengts/war/track/page/devcmd/LocalStrings_ru.properties=13CE44B2E5B275F0CBEBB73286781EB6
src/org/opengts/war/track/page/devcmd/LocalStrings_sk.properties=0EB3AC61FC8FF8AFF7FF1D0F66094F0D
src/org/opengts/war/track/page/devcmd/LocalStrings_sr.properties=AA0C68474AB707BD5E112D652DD12099
src/org/opengts/war/track/page/devcmd/LocalStrings_tr.properties=C6BD09C1179AA43268331A52A5F4FF59
src/org/opengts/war/track/page/devcmd/README.txt=63A2148BF88F73E8504D112CC1731733
src/org/opengts/war/track/page/devcmd/package-info.java=66E4A24FC91D26454CD33B1187B99BEB
src/org/opengts/war/track/page/package-info.java=4B944A0B386F462193398F1356FF8460
src/org/opengts/war/track/taglib/RTConfigTag.java=1B11B137B8BBE9445B855C3B095338D4
src/org/opengts/war/track/taglib/TrackTag.java=88CB745868FB8AE013E6C178866CF4DC
src/org/opengts/war/track/taglib/package-info.java=FE96A401C06B01A1287720BD90FE1FD8
system.conf=B89663D9B8B584D747DFB5786596540B
timezones.conf=A226AEC5B8E6DDE171C1F77E90D1DB49
war/ctrac/WEB-INF/web.xml=314B4964E273FEFD4DFC88F01C941680
war/ctrac/images/blank.png=ABC314A2920A671A1696620D2C862EE9
war/events/WEB-INF/web.xml=4D613C2EA10A49D1FE5FA2E51F301F0C
war/gc101/WEB-INF/web.xml=4987B6A3AF075FB27B9B5A5B7641EAD7
war/gprmc/WEB-INF/web.xml=CF25877FC855258FD6E10136EDE1F0F6
war/gpsmapper/WEB-INF/web.xml=7A5372374A8AE2604ED242B95CB2F947
war/mologogo/WEB-INF/web.xml=7E757AC9B420D7295005AC6F5B8681B2
war/track/WEB-INF/tld/Track.tld=DABE49FA6EE510F842655194B11F5648
war/track/WEB-INF/web.xml=625D9DFEE74B90AD31929376868BA84B
war/track/css/AccountLogin.css=0337BBA48E243CCB892A5F1108107407
war/track/css/Calendar.css=775CE2A70E8AF42272387DA01A6D5B40
war/track/css/Controls.css=E808BD446A624ABF52426BE4B72DCCCB
war/track/css/DeviceChooser.css=CE4AEB67D68D9027AB6E94EFEBDDC34C
war/track/css/DeviceInfo.css=993E9C7ADD62F742A76BC9A00A77FC76
war/track/css/ELogHOSFrame.css=8D147488D79495F61932214D95771381
war/track/css/ExpandMenu.css=A74D26C6275E508CAA46A82073D96C98
war/track/css/ForgotPassword.css=7B671998407BEA9BEC277E8772E4FECC
war/track/css/General.css=07F950AE7BCEBDA6732C42F7166B27B3
war/track/css/GroupInfo.css=651522919D04932259D011D842FC2093
war/track/css/IconMenu.css=5AB9DE606F55A4B5050DE4D000EB214F
war/track/css/JSMap.css=44E0527419A659FF677272025B6F0848
war/track/css/LoginMessage.css=CC46F35DE33ABDB3649B06D0CAE2B762
war/track/css/MenuBar.css=4A60A4AA33EA4F9A98AF79BF47C775BA
war/track/css/NewAccount.css=89C51BF7FBA4C1E1E4964668B4F70F9E
war/track/css/Offline.css=148CC73BA28BCB3F9BD0FBD477B209FC
war/track/css/PushpinChooser.css=09E22FE7F0C55AC12DBC24484B2E48F6
war/track/css/ReportDisplay.css=726EEE0A38EDA55F9176A3C45949C6F5
war/track/css/ReportMenu.css=239178394983C34F5F6E9FA4F9785B41
war/track/css/RptEventDataLayout.css=4122E668097D111B26F6FD2D304CC63C
war/track/css/RptFieldLayout.css=A3F67E7925AE71205438ABE3035FA5F1
war/track/css/RptGlobalStyle.css=E2191002790ED58C73D9C21FB46A8F86
war/track/css/SysAdminAccounts.css=E121CBFC856D6D50CB84EE7AE605F408
war/track/css/TopMenu.css=6055CF8A934E6C1E71F4B38F86EFAECD
war/track/css/UserInfo.css=A77065E76985C73ED470ED0E6AB915A7
war/track/css/ZoneInfo.css=1A6220560A8C9DC0209E037549FADC9F
war/track/images/Banner_White.png=B9A4FF87C6193DB985FFE662FC12A7DA
war/track/images/Banner_White90.png=82C6B347B56753B4B1A4DA20CE858075
war/track/images/Banner_WhiteShadow.png=919EECBB0AFD4F93B447E440449A4B77
war/track/images/Batt000.png=6F0B2C03BC51B570FDBCEBF4937081EA
war/track/images/Batt025.png=CAD57D0D2EB0BF1A6253CBB4C41875D1
war/track/images/Batt050.png=08E00D11FE1C7294C6F9DA92E50C6AC9
war/track/images/Batt070.png=FE691B932B26029527B03E9358D47C02
war/track/images/Batt090.png=C168458211E7DF4CCC854F0A3AE0CB12
war/track/images/Batt100.png=21AC8EECA212E44127F9DC5BE3638E96
war/track/images/Button20.png=20C2442E084497F3950B57797A113E06
war/track/images/Closed.png=01761206EE37468107C2FE2E1113B0B2
war/track/images/Continue20.png=6931B64B4537954F7465CD28D9F7871D
war/track/images/Leaf.png=A4B0644CCF96B98C86F8CA8858A59889
war/track/images/MenuBtn.png=4D594092685FEB5D753A1E8C11D24AFE
war/track/images/MenuBtnH.png=D6759D9ED21BCDFB1CE7F00B854BF214
war/track/images/MenuBtnH_X.png=8BD6CA9EE64E07DAFB24B84BC5D22551
war/track/images/MenuBtnH_lg.png=0429171EA60B93EC98985D85DF8565B4
war/track/images/MenuBtnH_sm.png=6FCE198AA1B195658773E644D09E6E37
war/track/images/MenuBtn_X.png=D4824344CF0ECCE0B2A7343CA28046BC
war/track/images/MenuBtn_blue.png=D6759D9ED21BCDFB1CE7F00B854BF214
war/track/images/MenuBtn_blueH.png=CF61B6B79357451BE7FF85F67781181E
war/track/images/MenuBtn_blueH_sm.png=C5DB20F064CCDD25604ABDB349E4E3D5
war/track/images/MenuBtn_blue_lg.png=0429171EA60B93EC98985D85DF8565B4
war/track/images/MenuBtn_blue_sm.png=6FCE198AA1B195658773E644D09E6E37
war/track/images/MenuBtn_green.png=494CDC65EC2626544184F0E3BF49C0DA
war/track/images/MenuBtn_green_sm.png=A217D563E3EA5B293725C70070CA3FCC
war/track/images/MenuBtn_lg.png=DD5552DEF6B89EE3B697796A3DEF03A9
war/track/images/MenuBtn_purple.png=4D594092685FEB5D753A1E8C11D24AFE
war/track/images/MenuBtn_purple_lg.png=DD5552DEF6B89EE3B697796A3DEF03A9
war/track/images/MenuBtn_purple_sm.png=92688C79D5CD855A4085A130D15B55C8
war/track/images/MenuBtn_sm.png=92688C79D5CD855A4085A130D15B55C8
war/track/images/MenuBtn_xblue.png=DA6CDB723A2529487431336366317F16
war/track/images/MenuBtn_xtrans.png=D4824344CF0ECCE0B2A7343CA28046BC
war/track/images/MenuBtn_xwhite.png=8BD6CA9EE64E07DAFB24B84BC5D22551
war/track/images/MrPushPin.png=B011099033F6B7D4EC3FFC1F1739518F
war/track/images/Node.png=A4B0644CCF96B98C86F8CA8858A59889
war/track/images/Opened.png=E45215A97F72683C8D61FBCEA1F575FE
war/track/images/Pause20.png=9F9725286DB2F2B175BA506257AF2275
war/track/images/Play20.png=063A45D06ED268E8C17B12A9AFB87B27
war/track/images/Pulldown.png=972CDD903853A3F8110AEC71754E43E6
war/track/images/SelTab25.gif=DA9F83CE25CECCF47A7E5665B2637FF8
war/track/images/SelTabW25.png=D74D0EBF7211C1E58F8EFFC71089D0EF
war/track/images/SelTabW25B.png=CEBE224ECDA9B588A9FEB7D558EEF437
war/track/images/SelTabW25_flat.png=A361A5171360148C61FCDC7284A455FB
war/track/images/TabBorder.gif=F584462A8F26CD7925D43B0B20792BEB
war/track/images/Tab_green.png=E0737A67041C385F3BB73424D7B2C3BE
war/track/images/Tab_greenH.png=769FACB67FEC072902BB6AA5DEB2B08C
war/track/images/Tab_purple.png=05C2AFCCE4795E273EA7DEEAB171F6E5
war/track/images/Tab_purpleH.png=D74D0EBF7211C1E58F8EFFC71089D0EF
war/track/images/UnselTab.png=0289EABA26811F16D728C948D34EC976
war/track/images/UnselTab25.gif=82744021920411BB9E516868C3C95ECE
war/track/images/UnselTabW25.png=05C2AFCCE4795E273EA7DEEAB171F6E5
war/track/images/UnselTabW25_flat.png=7028A6B38BF6535BA66C82A54D3A6120
war/track/images/VSep_Black.png=5FBBED11BF3DD9C59502AC5D1FB6D79D
war/track/images/VSep_Blue.png=E5DE90D11569C39060CFDD421FEC5CCE
war/track/images/VSep_DBlue.png=4B80CCBDCF97B254159BA60DFF8499D8
war/track/images/VSep_White.png=326DB111D8358B08148D4A91D483C4FD
war/track/images/WhiteOval.png=594858AC21F7FF5440C9C557E14E8977
war/track/images/WhiteOvalX.png=F8E36138DAC1D5B6AB8D7FB77C8B3314
war/track/images/arrowDn.png=1374F8A8054397A7E4D6272355800070
war/track/images/arrowDn3.png=0F84945AF8FCC8E08C7C78E67010A01E
war/track/images/arrowLt3.png=11443EC8E06D1DFE9A00B78E84207B90
war/track/images/arrowRedDn.png=ACFD2F060D46D223573101954550E3C8
war/track/images/arrowRedUp.png=CA42BBCF55EE6D4F53D5D698176A2A7E
war/track/images/arrowRt3.png=F14283EEA10E472952DC573F57CBA1D8
war/track/images/arrowUp.png=1580434D699D773946EABD2579FE36AD
war/track/images/arrowUp3.png=11625C7B7A17492F959CC690DF35AB07
war/track/images/blank.png=ABC314A2920A671A1696620D2C862EE9
war/track/images/clear16.png=6FD56AC08238AD033041A06D7C2CEDBA
war/track/images/clear20.png=67190B141560458E6EB00A3AC349BF5C
war/track/images/clear26.png=722D3816173216952E7BBBF4FDDEACBA
war/track/images/led/led16_black.png=25824753D6A034C5206A8F895A78AAA5
war/track/images/led/led16_blue.png=0605A56C4DC4A61FF9DCBD8F09AC399B
war/track/images/led/led16_brown.png=9549FFED5229C3657DD584873F016B0F
war/track/images/led/led16_glass.png=815F3839855537E7FC910C7DC7BA91AF
war/track/images/led/led16_gray.png=C12A9E902F2C11EE1A0ECAE42103199D
war/track/images/led/led16_green.png=17570EAC5A839BD45F5448B9B2B457A9
war/track/images/led/led16_orange.png=A609D28C4D39AB9E597B70BBA862614F
war/track/images/led/led16_purple.png=3A0860B0D7C61E930EECFFD449E85239
war/track/images/led/led16_red.png=13C484687B828EAF2839F6D992172514
war/track/images/led/led16_white.png=6F4A6295D146D78DB33F81E191E3D398
war/track/images/led/led16_yellow.png=5E3824542D4861BF9C50ABCBA66C02DC
war/track/images/mini5/mini5_green.png=8A7B499131CB20A795EEF14DA5C94525
war/track/images/mini5/mini5_red.png=7588DFFF1E3F32C942F63E5843927D1B
war/track/images/mini5/mini5_yellow.png=1BCF805F633BE4F1EF830A26C4D4CEBC
war/track/images/pp/README.txt=06DA0F2DA9A68902A4FEEBE09C61999A
war/track/images/pp/box28_cyan.png=AA26BDD8250A656BE2BFE794D1B530A4
war/track/images/pp/box28_shadow.png=FC92FD73B1953EB01403308107CACA1F
war/track/images/pp/box28_white.png=826B2605A682595551E1CBFEB5144154
war/track/images/pp/box40_white.png=6DA8500BFB430585293088575E757E09
war/track/images/pp/clear16.png=6FD56AC08238AD033041A06D7C2CEDBA
war/track/images/pp/clear20.png=67190B141560458E6EB00A3AC349BF5C
war/track/images/pp/label45_fill.png=EE7248C8DE191B8931035CFDBC93782D
war/track/images/pp/label45_shadow.png=FC92FD73B1953EB01403308107CACA1F
war/track/images/pp/label47_fill.png=5C2199CA81B999F0E23644C1BCC843BC
war/track/images/pp/label47_shadow.png=FC92FD73B1953EB01403308107CACA1F
war/track/images/pp/label67_fill.png=DCC27F00BDD5403F29CFFF65CD729BAB
war/track/images/pp/label67_shadow.png=B8CAC33CAAA50DFFEB149AE22AAEE6CD
war/track/images/pp/label67x2_fill.png=B9A0357DA0C1852CFA5F875C029CAAD9
war/track/images/pp/label67x3_fill.png=643D7753BC01E88E09676CF65C9C5E30
war/track/images/pp/label67x_pp.png=C71B5FF16A85D4734293DEE3C8CC0AEF
war/track/images/pp/pin30_black.png=53F91B21E70410F72881DFA70FEE9787
war/track/images/pp/pin30_black_h0.png=4FD06BE73758BBC75B28D54DF418A851
war/track/images/pp/pin30_black_h1.png=7286C5AB034B9A8437D6F48BF28F3541
war/track/images/pp/pin30_black_h2.png=56C9A2DDBF04A895A24673EA793334CE
war/track/images/pp/pin30_black_h3.png=295F6FEBCB939074024DB1A680C5A135
war/track/images/pp/pin30_black_h4.png=918B4C5A20D5B72BBFDA57853E710236
war/track/images/pp/pin30_black_h5.png=D22024714E5C9C3F1D205952F6F74E6F
war/track/images/pp/pin30_black_h6.png=02C6E671CA6EED32E2570AA61BC00943
war/track/images/pp/pin30_black_h7.png=5C1B8F57D07F94C397587324AD92E34A
war/track/images/pp/pin30_blue.png=66522F0DC5A59EC4ECD7C6BA61005FBA
war/track/images/pp/pin30_blue_dot.png=381EA608BC3EC6BC3B69F90F8E3AC030
war/track/images/pp/pin30_blue_fill.png=0AA4026DA3E4E916F8C054CE604B8875
war/track/images/pp/pin30_blue_h0.png=AC109B4B2A29BFE311033731111FCCB9
war/track/images/pp/pin30_blue_h1.png=EA0F3F88A2C290869F9E3A141787367C
war/track/images/pp/pin30_blue_h2.png=80787206132C457A1B05E3AB6DC478B2
war/track/images/pp/pin30_blue_h3.png=65A1E2B67C96AF64A886ED0FD6188753
war/track/images/pp/pin30_blue_h4.png=603BD91C9097EA82CFA20E3ED04919F3
war/track/images/pp/pin30_blue_h5.png=FDFDBE209FD3CD0A14D2A1FA41CC496A
war/track/images/pp/pin30_blue_h6.png=C68440054E0D658C5A69331998FF231C
war/track/images/pp/pin30_blue_h7.png=9E1B0D476FBD22092379657C010FCA7D
war/track/images/pp/pin30_bluegray.png=ED6C69CB0AC2054568BC314C0F1B0B5D
war/track/images/pp/pin30_brown.png=B5ECF45E8F630FFA374BBF3312382D04
war/track/images/pp/pin30_cyan.png=416AAED04B1F91C1D2CFEB258E747F19
war/track/images/pp/pin30_darkblue.png=9A17D292EDE7620408461920EDD44755
war/track/images/pp/pin30_darkblue_h0.png=189E44796593E4021696E1E4AD607198
war/track/images/pp/pin30_darkblue_h1.png=F4691706224F8DA2AFC00690BC8962BC
war/track/images/pp/pin30_darkblue_h2.png=5CE4404AE3DE7FD9B69AF4EB9AC97E6E
war/track/images/pp/pin30_darkblue_h3.png=67CD471090D69488E654B7DA67510378
war/track/images/pp/pin30_darkblue_h4.png=1B71F5D7D0B5C2D5126E5F5A846774DC
war/track/images/pp/pin30_darkblue_h5.png=9E74F4974C683A54B3C5FB1E052589BC
war/track/images/pp/pin30_darkblue_h6.png=A0AEF587B79A48C8BC2007852DD9F9DC
war/track/images/pp/pin30_darkblue_h7.png=9CEB1F25F46F27FFF94A27BC4CEFFEC8
war/track/images/pp/pin30_darkgreen.png=5F11F72025E7F6E8B1200F789A3B59FF
war/track/images/pp/pin30_darkpurple.png=9B29D93513179D7870FF6B7A5C52D4AE
war/track/images/pp/pin30_darkred.png=27352A551593E4A15F8A72CA6491A4A3
war/track/images/pp/pin30_gold.png=BC4536D4B64A11362544C730936F5386
war/track/images/pp/pin30_gray.png=773A3D8DBA11AA2281B17F3A70B6B007
war/track/images/pp/pin30_gray_h0.png=1D62F04531B0F3270E6AECD25506CCDD
war/track/images/pp/pin30_gray_h1.png=1CD6FFD78CBBD82AA7BD66DE744BE791
war/track/images/pp/pin30_gray_h2.png=6CFD632ED89EE74F09E01B314EAA08FE
war/track/images/pp/pin30_gray_h3.png=2C33833356DA2E0BA26A8A705332A47B
war/track/images/pp/pin30_gray_h4.png=4D5C11F9149A7887D01A58B7FA5880AB
war/track/images/pp/pin30_gray_h5.png=B1E1CCCD7CB4C052164319FB5B168CBE
war/track/images/pp/pin30_gray_h6.png=582683850CEE5F804B4C19DB23093D01
war/track/images/pp/pin30_gray_h7.png=18A62373EAE8AFA4572BC8F9A2A45614
war/track/images/pp/pin30_green.png=4B9A295FCCC34C38B3164F2E146EB359
war/track/images/pp/pin30_green_dot.png=F0B55EB9BD2853DED32A74252E9D326B
war/track/images/pp/pin30_green_h0.png=CA9C13B35FA04AC0E72E7D60E4461A4C
war/track/images/pp/pin30_green_h1.png=C7CDEE93A1A55828FCD318EE0A74D522
war/track/images/pp/pin30_green_h2.png=C595B55FF9DEE40AC31408FEA2270A87
war/track/images/pp/pin30_green_h3.png=C1A37875F6E50AFF7FB98329EFD20EF1
war/track/images/pp/pin30_green_h4.png=ABFA074CE71D9BE6AF13C2EC3ADFC7D1
war/track/images/pp/pin30_green_h5.png=FE21D11FE42EAA1B2F7805E06AC1FE40
war/track/images/pp/pin30_green_h6.png=E558CF758195B1E890B72236EA02057D
war/track/images/pp/pin30_green_h7.png=FD9CADD6A0ECF2DEA8365A0EA87C9F0D
war/track/images/pp/pin30_lime.png=E18FF12EC909F3ABAB2B633B25E05C09
war/track/images/pp/pin30_lime_h0.png=1DD0ED26805B4BFDBA84C6FC408BCB1C
war/track/images/pp/pin30_lime_h1.png=5E72ECC35252F0AA6E866578EBA4BC34
war/track/images/pp/pin30_lime_h2.png=1750794B129D868B7B0D5264227830A0
war/track/images/pp/pin30_lime_h3.png=3C3EC05BA88265D52EF77A667E0A6BD7
war/track/images/pp/pin30_lime_h4.png=9DAB0BC0304A1AB11DE77725C3040A1A
war/track/images/pp/pin30_lime_h5.png=BCD54CC85679303A6E9511636A5D68CF
war/track/images/pp/pin30_lime_h6.png=6F0ED4ABFE556DA1B9E718AEC70C00A0
war/track/images/pp/pin30_lime_h7.png=66D7932E1312B6C73A29BDFE830A842A
war/track/images/pp/pin30_magenta.png=8714503D9F04F4DA88930C09BB50ADE4
war/track/images/pp/pin30_orange.png=7AA237DAE2D7E53CBCB2BC325EDEE42B
war/track/images/pp/pin30_orange_h0.png=C25AE69307702946792F7E707B9AFAB1
war/track/images/pp/pin30_orange_h1.png=0FBA44C8D691DC704D772633AFDB55DD
war/track/images/pp/pin30_orange_h2.png=C4D94DECB4358F4F7468B37C989188F7
war/track/images/pp/pin30_orange_h3.png=3AA62272797FCA530F93BD8284A25B6A
war/track/images/pp/pin30_orange_h4.png=7A94E56FC623F7696567EC163A3315F5
war/track/images/pp/pin30_orange_h5.png=4AE966EEA558499B186340628867124D
war/track/images/pp/pin30_orange_h6.png=8BC0B4B086B6A73A54AC90E925839371
war/track/images/pp/pin30_orange_h7.png=2C9F0CC724D10BF0D3B2596719477A12
war/track/images/pp/pin30_pink.png=BC7E51E3B2C56CD604350CB651D7F79F
war/track/images/pp/pin30_purple.png=E28A9BE468CE83893471906844C5F8C8
war/track/images/pp/pin30_red.png=07999E835014870D35D5C7FA06E51332
war/track/images/pp/pin30_red_dot.png=FBAD467706E8925F815903913E987B7A
war/track/images/pp/pin30_salmon.png=53F0C0FAC1FB60663817B7A440196492
war/track/images/pp/pin30_shadow.png=542D45000E87E7E9AE3F3CB16B7F5FA4
war/track/images/pp/pin30_teal.png=1493D9024EC01D0BF953573E91F3F70B
war/track/images/pp/pin30_teal_h0.png=FA869CCC921183C3891049FB2D399908
war/track/images/pp/pin30_teal_h1.png=C7683A34C3C69E9540FB920264808896
war/track/images/pp/pin30_teal_h2.png=EDD932D46E3A96A3F4952C63F9CE7018
war/track/images/pp/pin30_teal_h3.png=60D5C8E713F876A1A7AABE1598BEFBA7
war/track/images/pp/pin30_teal_h4.png=D175B4018CDD97AEB4889F92EB4F7534
war/track/images/pp/pin30_teal_h5.png=11AF3B29C8474BCC23C02629ED2D6796
war/track/images/pp/pin30_teal_h6.png=3CCDEA11AA77FE1FB01209E1C4194F8B
war/track/images/pp/pin30_teal_h7.png=F7E462DC73952891B56A9A63E3266A4B
war/track/images/pp/pin30_white.png=433085551D218997A1619B8F1BD526E4
war/track/images/pp/pin30_yellow.png=B4D599AFF2BA4CEB737F1A8A15616FF3
war/track/images/pp/pin30_yellow_h0.png=17D0407444BCDF3EB6BCCD2B3ED00638
war/track/images/pp/pin30_yellow_h1.png=356A9523E33AC45D0BB8149BC76406EF
war/track/images/pp/pin30_yellow_h2.png=37C91F5C46CE53B3BD0F3B683578478A
war/track/images/pp/pin30_yellow_h3.png=6FA99D189985F7E546856397D3ABE373
war/track/images/pp/pin30_yellow_h4.png=B8A4D1857158BCA390E8C04D0E92D828
war/track/images/pp/pin30_yellow_h5.png=C0F0DC307233205BD35261C300D4BE7B
war/track/images/pp/pin30_yellow_h6.png=B82A22E603F62BE1B39D7F1A673F8CA3
war/track/images/pp/pin30_yellow_h7.png=051F753F061C7A2CB2597153ADFB66F0
war/track/images/sortAscend.png=ACFD2F060D46D223573101954550E3C8
war/track/images/sortDescend.png=CA42BBCF55EE6D4F53D5D698176A2A7E
war/track/js/Calendar.js=C1B062FECAE9D0BEA00D38DD8490885F
war/track/js/Chart.js=DE0A6987D0F26C07D0DBF3F64539AE73
war/track/js/DeviceChooser.js=7AB0A9C5070BB28C693CB21BF1003134
war/track/js/DeviceInfo.js=D41826CC436C39C7356B9977ECFAA560
war/track/js/DriverInfo.js=A6E3E4099F5B5438DB7E6E5D8C7C4087
war/track/js/ExpandMenu.js=0707656CC84715B4B7C8860E838F4CAC
war/track/js/Geozone.js=9E14208114F0793C0A1F89138C20A468
war/track/js/MenuBar.js=AB1A20C114E7471F863259D23FBDD431
war/track/js/PushpinChooser.js=D952C0B5A78E73D663DB309205CB6DDE
war/track/js/ShareMap.js=4F117FA92DFC077683CB37D91BA0A5D9
war/track/js/TrackMap.js=D8861B97C026C5840465CD645AD12A4D
war/track/js/bing/Bing.js=4F4119856156C8B283CF8F07A7AD2844
war/track/js/maps/BingMaps.js=E0195B634D1DC3C928F07419552A2A16
war/track/js/maps/GoogleMapsV2.js=F118EEA8D449220F94A6BBAA90518B5D
war/track/js/maps/GoogleMapsV3.js=31B08F2FE2C248B18F05516DA3CF4502
war/track/js/maps/LeafletV1_0_0.js=2FAAF1F08252CC0AF79A5FC335D1340F
war/track/js/maps/MapstractionMXN2.js=A3B8CD0135107E478AE61D6963FC672E
war/track/js/maps/MapstractionV1.js=ADA2C6F2E7A55A25208FF5CDFBF242DC
war/track/js/maps/MapstractionV2.js=1E62BA8290B58B8949D5ADDEC567A81E
war/track/js/maps/OpenLayers.js=73C40F493943CB127CE3E590B4822EE1
war/track/js/maps/VirtualEarth.js=6673EF0AF8FBB6D23EDB57709A369935
war/track/js/maps/jsmap.js=1920BD842D814D3CFE5948D360155F86
war/track/js/mapstraction/labeledmarker.js=C8B91C4F5D08F3278FC80D1C82691F0B
war/track/js/mapstraction/mapstraction-geocode.js=8D6C3C8413A61FF1747593C0C35C73D2
war/track/js/mapstraction/mapstraction.js=6CB76F10E2471F916EB5452E4C2DF560
war/track/js/mapstraction/mxn/README.txt=862847748341E250093B2BDF8EEFC9B7
war/track/js/sorttable/sorttable.js=FE7AE34DCD6841AE4A71E14DB8A0DCEF
war/track/js/utils.js=CD0CAAF262908618281057BCE0798B67
war/track/jsp/emailReport.jsp=F783F94F8397F10F3009F18E9387BA73
war/track/jsp/htmlWrapper.jsp=1D5FB60B8F6A48C0A934E341C5ECE266
war/track/jsp/loginFrame.jsp=26B8AD034C811FFE363185D2BE483823
war/track/jsp/loginSession.jsp=875004AEA361233CE6CF1FE4123B4E2B
war/track/jsp/loginSession_banner.jsp=0BC2B8CDE33CC34EE7DEDEE744603CC0
war/track/jsp/loginSession_frame.jsp=1FF21AA5038CD03455626B998380B867
war/track/jsp/loginSession_mobile.jsp=ADFE8043040090CC96F50B8DB18018CB
war/track/jsp/loginSession_mobileDemo.jsp=C7CF3D9228569F81B114F6DE862F2B97
webapp.conf=249D0BA3B73DB9DF0554665A67AD7994
